\relax 
\providecommand\hyper@newdestlabel[2]{}
\providecommand\HyperFirstAtBeginDocument{\AtBeginDocument}
\HyperFirstAtBeginDocument{\ifx\hyper@anchor\@undefined
\global\let\oldcontentsline\contentsline
\gdef\contentsline#1#2#3#4{\oldcontentsline{#1}{#2}{#3}}
\global\let\oldnewlabel\newlabel
\gdef\newlabel#1#2{\newlabelxx{#1}#2}
\gdef\newlabelxx#1#2#3#4#5#6{\oldnewlabel{#1}{{#2}{#3}}}
\AtEndDocument{\ifx\hyper@anchor\@undefined
\let\contentsline\oldcontentsline
\let\newlabel\oldnewlabel
\fi}
\fi}
\global\let\hyper@last\relax 
\gdef\HyperFirstAtBeginDocument#1{#1}
\providecommand\HyField@AuxAddToFields[1]{}
\providecommand\HyField@AuxAddToCoFields[2]{}
\citation{nixon2006automatic,orr2000smart,gafurov2007survey,wang2016gait,zeng2016wiwho,zhang2016wifi}
\citation{household_security}
\citation{valente2019privacy}
\citation{li2016side,li2020your}
\citation{wu2017device}
\citation{ma2019wifi}
\@writefile{toc}{\contentsline {section}{Abstract}{1}{section*.1}\protected@file@percent }
\@writefile{toc}{\contentsline {section}{\numberline {1}Introduction}{1}{section.1}\protected@file@percent }
\newlabel{sec:Introduction}{{1}{1}{Introduction}{section.1}{}}
\citation{Rishi_2018_google}
\citation{waite2002sonar}
\citation{gupta2012soundwave,nandakumar2016fingerio}
\citation{sun_2018_vskin}
\citation{lu2018lippass,zhang2017hearing}
\citation{nandakumar2017covertband,graham15:IoT:software}
\citation{zhang2007acoustic,wang2018gait,le2018human}
\citation{nixon2006automatic}
\citation{orr2000smart}
\citation{gafurov2007survey}
\citation{wang2016gait,zeng2016wiwho,zhang2016wifi}
\citation{waite2002sonar}
\citation{gupta2012soundwave,nandakumar2016fingerio}
\citation{sun_2018_vskin}
\citation{lu2018lippass,zhang2017hearing}
\citation{zhang2017hearing}
\citation{lu2018lippass}
\citation{chauhan2017breathprint}
\citation{graham15:IoT:software}
\citation{nandakumar2017covertband}
\citation{xu2019acousticid}
\citation{bouchrika2011using,teixeira2009pem}
\citation{jenkins2007using}
\citation{mondal2012gait}
\citation{gafurov2006biometric,ren2013smartphone,zhang2015accelerometer}
\citation{ngo2014largest}
\citation{pan2015indoor}
\citation{zhao2019mid}
\citation{wang2016gait,zeng2016wiwho,zhang2016wifi}
\citation{ma2019wifi}
\@writefile{toc}{\contentsline {section}{\numberline {2}RELATED WORK}{4}{section.2}\protected@file@percent }
\newlabel{sec:related}{{2}{4}{RELATED WORK}{section.2}{}}
\citation{altaf2015acoustic,zhang2007acoustic,wang2018gait,le2018human}
\citation{altaf2015acoustic}
\citation{zhang2007acoustic,wang2018gait,kalgaonkar2007acoustic}
\citation{nicholas2010physics}
\@writefile{toc}{\contentsline {section}{\numberline {3}PRELIMINARIES}{5}{section.3}\protected@file@percent }
\newlabel{sec:prelim}{{3}{5}{PRELIMINARIES}{section.3}{}}
\newlabel{velocity}{{1}{5}{PRELIMINARIES}{equation.3.1}{}}
\citation{han2006individual,muro2014gait}
\@writefile{lof}{\contentsline {figure}{\numberline {1}{\ignorespaces Spectrogram of a moving person.\relax }}{6}{figure.caption.2}\protected@file@percent }
\providecommand*\caption@xref[2]{\@setref\relax\@undefined{#1}}
\newlabel{moving person}{{1}{6}{Spectrogram of a moving person.\relax }{figure.caption.2}{}}
\@writefile{toc}{\contentsline {section}{\numberline {4}FEASIBILITY STUDY}{6}{section.4}\protected@file@percent }
\newlabel{sec:feasibility}{{4}{6}{FEASIBILITY STUDY}{section.4}{}}
\@writefile{toc}{\contentsline {subsection}{\numberline {4.1}Gait Patterns Detection}{6}{subsection.4.1}\protected@file@percent }
\@writefile{lof}{\contentsline {figure}{\numberline {2}{\ignorespaces Detecting gait patterns: frequency changes through acoustic sensing and the ground truth.\relax }}{7}{figure.caption.3}\protected@file@percent }
\newlabel{Comparison acoustic to ground truth}{{2}{7}{Detecting gait patterns: frequency changes through acoustic sensing and the ground truth.\relax }{figure.caption.3}{}}
\@writefile{toc}{\contentsline {subsection}{\numberline {4.2}Gait Pattern Distinction among Persons}{7}{subsection.4.2}\protected@file@percent }
\newlabel{Comparison person to persona}{{3(a)}{8}{Subfigure 3(a)}{subfigure.3.1}{}}
\newlabel{sub@Comparison person to persona}{{(a)}{8}{Subfigure 3(a)\relax }{subfigure.3.1}{}}
\newlabel{Comparison person to personb}{{3(b)}{8}{Subfigure 3(b)}{subfigure.3.2}{}}
\newlabel{sub@Comparison person to personb}{{(b)}{8}{Subfigure 3(b)\relax }{subfigure.3.2}{}}
\@writefile{lof}{\contentsline {figure}{\numberline {3}{\ignorespaces The spectrograms of Doppler shifts from two persons.\relax }}{8}{figure.caption.4}\protected@file@percent }
\newlabel{Comparison person to person}{{3}{8}{The spectrograms of Doppler shifts from two persons.\relax }{figure.caption.4}{}}
\@writefile{lof}{\contentsline {subfigure}{\numberline{(a)}{\ignorespaces {Doppler shift of the first person.}}}{8}{figure.caption.4}\protected@file@percent }
\@writefile{lof}{\contentsline {subfigure}{\numberline{(b)}{\ignorespaces {Doppler shift of the second person.}}}{8}{figure.caption.4}\protected@file@percent }
\@writefile{toc}{\contentsline {section}{\numberline {5}SYSTEM DESIGN}{8}{section.5}\protected@file@percent }
\newlabel{sec:sys_des}{{5}{8}{SYSTEM DESIGN}{section.5}{}}
\@writefile{toc}{\contentsline {subsection}{\numberline {5.1}Threat Model}{8}{subsection.5.1}\protected@file@percent }
\citation{shannon1998communication}
\citation{mello2007digital}
\citation{transafety1997study}
\@writefile{lof}{\contentsline {figure}{\numberline {4}{\ignorespaces The workflow of EchoSensor.\relax }}{9}{figure.caption.5}\protected@file@percent }
\newlabel{systemdesign}{{4}{9}{The workflow of EchoSensor.\relax }{figure.caption.5}{}}
\@writefile{toc}{\contentsline {subsection}{\numberline {5.2}System Overview}{9}{subsection.5.2}\protected@file@percent }
\@writefile{toc}{\contentsline {subsection}{\numberline {5.3}Interference Cancellation}{9}{subsection.5.3}\protected@file@percent }
\newlabel{subsec:IC}{{5.3}{9}{Interference Cancellation}{subsection.5.3}{}}
\@writefile{lof}{\contentsline {figure}{\numberline {5}{\ignorespaces Spectrogram of Doppler effect from the gait movement.\relax }}{10}{figure.caption.6}\protected@file@percent }
\newlabel{original spectrogram}{{5}{10}{Spectrogram of Doppler effect from the gait movement.\relax }{figure.caption.6}{}}
\citation{lawrance1977exponential}
\citation{wang2016gait}
\@writefile{lof}{\contentsline {figure}{\numberline {6}{\ignorespaces The resulted spectrogram after applying two-stage cancellation.\relax }}{11}{figure.caption.7}\protected@file@percent }
\newlabel{denoised Spectrogram}{{6}{11}{The resulted spectrogram after applying two-stage cancellation.\relax }{figure.caption.7}{}}
\@writefile{toc}{\contentsline {subsection}{\numberline {5.4}Walking Detection}{11}{subsection.5.4}\protected@file@percent }
\newlabel{noise threshold}{{2}{11}{Walking Detection}{equation.5.2}{}}
\citation{van2008feature}
\@writefile{lof}{\contentsline {figure}{\numberline {7}{\ignorespaces Upper contour of the marked spectrogram.\relax }}{12}{figure.caption.8}\protected@file@percent }
\newlabel{pleg contour}{{7}{12}{Upper contour of the marked spectrogram.\relax }{figure.caption.8}{}}
\@writefile{toc}{\contentsline {subsection}{\numberline {5.5}Gait Cycle Time Estimation}{12}{subsection.5.5}\protected@file@percent }
\newlabel{subsec:gaitcycletime}{{5.5}{12}{Gait Cycle Time Estimation}{subsection.5.5}{}}
\newlabel{leg contour}{{3}{12}{Gait Cycle Time Estimation}{equation.5.3}{}}
\citation{oppenheim1968homomorphic}
\citation{kalgaonkar2007acoustic}
\citation{degottex2010glottal}
\@writefile{lof}{\contentsline {figure}{\numberline {8}{\ignorespaces Autocorrelation of the leg contour curve.\relax }}{13}{figure.caption.9}\protected@file@percent }
\newlabel{Autocorrelation}{{8}{13}{Autocorrelation of the leg contour curve.\relax }{figure.caption.9}{}}
\newlabel{eq}{{4}{13}{Gait Cycle Time Estimation}{equation.5.4}{}}
\@writefile{toc}{\contentsline {subsection}{\numberline {5.6}Feature Extraction}{13}{subsection.5.6}\protected@file@percent }
\newlabel{subsec:feature}{{5.6}{13}{Feature Extraction}{subsection.5.6}{}}
\citation{wang2016gait}
\citation{van2008feature}
\newlabel{eq5}{{5}{14}{Feature Extraction}{equation.5.5}{}}
\newlabel{eq6}{{6}{14}{Feature Extraction}{equation.5.6}{}}
\newlabel{eq7}{{7}{14}{Feature Extraction}{equation.5.7}{}}
\newlabel{eq8}{{8}{14}{Feature Extraction}{equation.5.8}{}}
\citation{wold1987principal}
\citation{chang2011libsvm}
\@writefile{toc}{\contentsline {subsection}{\numberline {5.7}Recognition}{15}{subsection.5.7}\protected@file@percent }
\newlabel{sec:recognition}{{5.7}{15}{Recognition}{subsection.5.7}{}}
\@writefile{toc}{\contentsline {section}{\numberline {6}PERFORMANCE EVALUATION}{15}{section.6}\protected@file@percent }
\newlabel{sec:performance}{{6}{15}{PERFORMANCE EVALUATION}{section.6}{}}
\@writefile{toc}{\contentsline {subsection}{\numberline {6.1}Experiments}{15}{subsection.6.1}\protected@file@percent }
\newlabel{subec:Experiments}{{6.1}{15}{Experiments}{subsection.6.1}{}}
\@writefile{toc}{\contentsline {subsection}{\numberline {6.2}Operational Distance}{16}{subsection.6.2}\protected@file@percent }
\newlabel{subec:distance}{{6.2}{16}{Operational Distance}{subsection.6.2}{}}
\@writefile{toc}{\contentsline {subsection}{\numberline {6.3}Overall Performance}{16}{subsection.6.3}\protected@file@percent }
\newlabel{subsec:overall}{{6.3}{16}{Overall Performance}{subsection.6.3}{}}
\@writefile{lof}{\contentsline {figure}{\numberline {9}{\ignorespaces IDR and TFR at different distances in home 1.\relax }}{17}{figure.caption.10}\protected@file@percent }
\newlabel{Distance_1}{{9}{17}{IDR and TFR at different distances in home 1.\relax }{figure.caption.10}{}}
\@writefile{lof}{\contentsline {figure}{\numberline {10}{\ignorespaces IDR and TFR at different distances in home 2.\relax }}{17}{figure.caption.10}\protected@file@percent }
\newlabel{Distance_2}{{10}{17}{IDR and TFR at different distances in home 2.\relax }{figure.caption.10}{}}
\@writefile{lof}{\contentsline {figure}{\numberline {11}{\ignorespaces IDR and TFR at different distances in home 3.\relax }}{17}{figure.caption.10}\protected@file@percent }
\newlabel{Distance_3}{{11}{17}{IDR and TFR at different distances in home 3.\relax }{figure.caption.10}{}}
\@writefile{lof}{\contentsline {figure}{\numberline {12}{\ignorespaces Averaged IDR and TFR at different distances.\relax }}{17}{figure.caption.11}\protected@file@percent }
\newlabel{Distance}{{12}{17}{Averaged IDR and TFR at different distances.\relax }{figure.caption.11}{}}
\@writefile{lof}{\contentsline {figure}{\numberline {13}{\ignorespaces Averaged IDR and TFR in all 10 families.\relax }}{17}{figure.caption.11}\protected@file@percent }
\newlabel{Families}{{13}{17}{Averaged IDR and TFR in all 10 families.\relax }{figure.caption.11}{}}
\@writefile{lof}{\contentsline {figure}{\numberline {14}{\ignorespaces Alarm accuracy under different numbers of samples and thresholds.\relax }}{17}{figure.caption.11}\protected@file@percent }
\newlabel{threshold}{{14}{17}{Alarm accuracy under different numbers of samples and thresholds.\relax }{figure.caption.11}{}}
\@writefile{lof}{\contentsline {figure}{\numberline {15}{\ignorespaces Different features.\relax }}{18}{figure.caption.12}\protected@file@percent }
\newlabel{different_features}{{15}{18}{Different features.\relax }{figure.caption.12}{}}
\@writefile{lof}{\contentsline {figure}{\numberline {16}{\ignorespaces Different actions.\relax }}{18}{figure.caption.12}\protected@file@percent }
\newlabel{Different action}{{16}{18}{Different actions.\relax }{figure.caption.12}{}}
\@writefile{toc}{\contentsline {subsection}{\numberline {6.4}Impact of Extracted Features}{18}{subsection.6.4}\protected@file@percent }
\@writefile{toc}{\contentsline {subsection}{\numberline {6.5}Impact of Person Actions}{18}{subsection.6.5}\protected@file@percent }
\newlabel{subsec:actions}{{6.5}{18}{Impact of Person Actions}{subsection.6.5}{}}
\@writefile{toc}{\contentsline {subsection}{\numberline {6.6}Impact of Mimicry and Saturate Attack}{18}{subsection.6.6}\protected@file@percent }
\newlabel{subsec:Mimicry}{{6.6}{18}{Impact of Mimicry and Saturate Attack}{subsection.6.6}{}}
\@writefile{lof}{\contentsline {figure}{\numberline {17}{\ignorespaces Mimicry attack.\relax }}{19}{figure.caption.13}\protected@file@percent }
\newlabel{Mimic}{{17}{19}{Mimicry attack.\relax }{figure.caption.13}{}}
\@writefile{lof}{\contentsline {figure}{\numberline {18}{\ignorespaces Saturate attack.\relax }}{19}{figure.caption.13}\protected@file@percent }
\newlabel{Saturate}{{18}{19}{Saturate attack.\relax }{figure.caption.13}{}}
\@writefile{lof}{\contentsline {figure}{\numberline {19}{\ignorespaces Different heights.\relax }}{19}{figure.caption.13}\protected@file@percent }
\newlabel{Different_height}{{19}{19}{Different heights.\relax }{figure.caption.13}{}}
\@writefile{lof}{\contentsline {figure}{\numberline {20}{\ignorespaces Different devices.\relax }}{19}{figure.caption.14}\protected@file@percent }
\newlabel{Different devices}{{20}{19}{Different devices.\relax }{figure.caption.14}{}}
\@writefile{lof}{\contentsline {figure}{\numberline {21}{\ignorespaces Different angles.\relax }}{19}{figure.caption.14}\protected@file@percent }
\newlabel{Different_angle}{{21}{19}{Different angles.\relax }{figure.caption.14}{}}
\@writefile{lof}{\contentsline {figure}{\numberline {22}{\ignorespaces Different speeds.\relax }}{19}{figure.caption.14}\protected@file@percent }
\newlabel{Different_speeds}{{22}{19}{Different speeds.\relax }{figure.caption.14}{}}
\@writefile{toc}{\contentsline {subsection}{\numberline {6.7}Impact of Device Placement}{19}{subsection.6.7}\protected@file@percent }
\@writefile{toc}{\contentsline {subsection}{\numberline {6.8}Impact of Different devices}{19}{subsection.6.8}\protected@file@percent }
\newlabel{subsec:devices}{{6.8}{19}{Impact of Different devices}{subsection.6.8}{}}
\@writefile{toc}{\contentsline {subsection}{\numberline {6.9}Impact of Walking Direction and Speed}{19}{subsection.6.9}\protected@file@percent }
\newlabel{subsec:direction and speed}{{6.9}{19}{Impact of Walking Direction and Speed}{subsection.6.9}{}}
\citation{li2022experience}
\citation{kalgaonkar2007acoustic,zhang2007acoustic,wang2018gait}
\citation{xu2019acousticid}
\citation{kalgaonkar2007acoustic,zhang2007acoustic,wang2018gait}
\citation{xu2019acousticid}
\@writefile{lof}{\contentsline {figure}{\numberline {23}{\ignorespaces Different noise.\relax }}{20}{figure.caption.15}\protected@file@percent }
\newlabel{Different_noises}{{23}{20}{Different noise.\relax }{figure.caption.15}{}}
\@writefile{lof}{\contentsline {figure}{\numberline {24}{\ignorespaces Different time.\relax }}{20}{figure.caption.15}\protected@file@percent }
\newlabel{Different_time}{{24}{20}{Different time.\relax }{figure.caption.15}{}}
\@writefile{lof}{\contentsline {figure}{\numberline {25}{\ignorespaces  EchoSensor v.s Baselines.\relax }}{20}{figure.caption.15}\protected@file@percent }
\newlabel{Different_apporaches}{{25}{20}{EchoSensor v.s Baselines.\relax }{figure.caption.15}{}}
\@writefile{toc}{\contentsline {subsection}{\numberline {6.10}Impact of Noises}{20}{subsection.6.10}\protected@file@percent }
\newlabel{subsec:noises}{{6.10}{20}{Impact of Noises}{subsection.6.10}{}}
\@writefile{toc}{\contentsline {subsection}{\numberline {6.11}Impact at Different Time}{20}{subsection.6.11}\protected@file@percent }
\@writefile{toc}{\contentsline {subsection}{\numberline {6.12}Comparison with Other Approaches}{20}{subsection.6.12}\protected@file@percent }
\@writefile{toc}{\contentsline {section}{\numberline {7}Discussion}{21}{section.7}\protected@file@percent }
\newlabel{subsec:discussion}{{7}{21}{Discussion}{section.7}{}}
\@writefile{toc}{\contentsline {subsection}{\numberline {7.1}Security Analysis}{21}{subsection.7.1}\protected@file@percent }
\@writefile{toc}{\contentsline {subsection}{\numberline {7.2}Limitations and Discussions}{21}{subsection.7.2}\protected@file@percent }
\@writefile{toc}{\contentsline {section}{\numberline {8}CONCLUSION}{22}{section.8}\protected@file@percent }
\newlabel{sec:conclude}{{8}{22}{CONCLUSION}{section.8}{}}
\bibstyle{ACM-Reference-Format}
\bibdata{ref}
\bibcite{altaf2015acoustic}{{1}{2015}{{Altaf et~al\mbox  {.}}}{{Altaf, Butko, and Juang}}}
\bibcite{bouchrika2011using}{{2}{2011}{{Bouchrika et~al\mbox  {.}}}{{Bouchrika, Goffredo, Carter, and Nixon}}}
\bibcite{chang2011libsvm}{{3}{2011}{{Chang and Lin}}{{Chang and Lin}}}
\bibcite{chauhan2017breathprint}{{4}{2017}{{Chauhan et~al\mbox  {.}}}{{Chauhan, Hu, Seneviratne, Misra, Seneviratne, and Lee}}}
\bibcite{degottex2010glottal}{{5}{2010}{{Degottex}}{{Degottex}}}
\bibcite{gafurov2007survey}{{6}{2007}{{Gafurov}}{{Gafurov}}}
\bibcite{gafurov2006biometric}{{7}{2006}{{Gafurov et~al\mbox  {.}}}{{Gafurov, Helkala, and S{\o }ndrol}}}
\bibcite{graham15:IoT:software}{{8}{2015}{{Graham et~al\mbox  {.}}}{{Graham, Simmons, Nguyen, and Zhou}}}
\bibcite{gupta2012soundwave}{{9}{2012}{{Gupta et~al\mbox  {.}}}{{Gupta, Morris, Patel, and Tan}}}
\bibcite{han2006individual}{{10}{2006}{{Han and Bhanu}}{{Han and Bhanu}}}
\bibcite{household_security}{{11}{2018}{{Ives}}{{Ives}}}
\bibcite{jenkins2007using}{{12}{2007}{{Jenkins and Ellis}}{{Jenkins and Ellis}}}
\bibcite{kalgaonkar2007acoustic}{{13}{2007}{{Kalgaonkar and Raj}}{{Kalgaonkar and Raj}}}
\bibcite{lawrance1977exponential}{{14}{1977}{{Lawrance and Lewis}}{{Lawrance and Lewis}}}
\bibcite{le2018human}{{15}{2018}{{Le et~al\mbox  {.}}}{{Le, Phung, and Bouzerdoum}}}
\bibcite{li2022experience}{{16}{2022}{{Li et~al\mbox  {.}}}{{Li, Cao, Lee, and Xiong}}}
\bibcite{li2016side}{{17}{2016}{{Li et~al\mbox  {.}}}{{Li, He, Sun, Cheng, and Yu}}}
\bibcite{li2020your}{{18}{2020}{{Li et~al\mbox  {.}}}{{Li, Li, Tyson, and Xie}}}
\bibcite{lu2018lippass}{{19}{[n.d.]}{{Lu et~al\mbox  {.}}}{{Lu, Yu, Chen, Liu, Zhu, Liu, and Li}}}
\bibcite{ma2019wifi}{{20}{2019}{{Ma et~al\mbox  {.}}}{{Ma, Zhou, and Wang}}}
\bibcite{mello2007digital}{{21}{2007}{{Mello et~al\mbox  {.}}}{{Mello, Oliveira, and Nadal}}}
\bibcite{mondal2012gait}{{22}{2012}{{Mondal et~al\mbox  {.}}}{{Mondal, Nandy, Chakraborty, and Nandi}}}
\@writefile{toc}{\contentsline {section}{Acknowledgments}{23}{section*.17}\protected@file@percent }
\@writefile{toc}{\contentsline {section}{References}{23}{section*.19}\protected@file@percent }
\bibcite{muro2014gait}{{23}{2014}{{Muro-De-La-Herran et~al\mbox  {.}}}{{Muro-De-La-Herran, Garcia-Zapirain, and Mendez-Zorrilla}}}
\bibcite{nandakumar2016fingerio}{{24}{[n.d.]}{{Nandakumar et~al\mbox  {.}}}{{Nandakumar, Iyer, Tan, and Gollakota}}}
\bibcite{nandakumar2017covertband}{{25}{2017}{{Nandakumar et~al\mbox  {.}}}{{Nandakumar, Takakuwa, Kohno, and Gollakota}}}
\bibcite{ngo2014largest}{{26}{2014}{{Ngo et~al\mbox  {.}}}{{Ngo, Makihara, Nagahara, Mukaigawa, and Yagi}}}
\bibcite{nicholas2010physics}{{27}{2010}{{Nicholas}}{{Nicholas}}}
\bibcite{nixon2006automatic}{{28}{2006}{{Nixon and Carter}}{{Nixon and Carter}}}
\bibcite{oppenheim1968homomorphic}{{29}{1968}{{Oppenheim and Schafer}}{{Oppenheim and Schafer}}}
\bibcite{orr2000smart}{{30}{2000}{{Orr and Abowd}}{{Orr and Abowd}}}
\bibcite{pan2015indoor}{{31}{2015}{{Pan et~al\mbox  {.}}}{{Pan, Wang, Qian, Velibeyoglu, Noh, and Zhang}}}
\bibcite{ren2013smartphone}{{32}{[n.d.]}{{Ren et~al\mbox  {.}}}{{Ren, Chen, Chuah, and Yang}}}
\bibcite{Rishi_2018_google}{{33}{2018}{{Rishi and Scott}}{{Rishi and Scott}}}
\bibcite{shannon1998communication}{{34}{1998}{{Shannon}}{{Shannon}}}
\bibcite{sun_2018_vskin}{{35}{2018}{{Sun et~al\mbox  {.}}}{{Sun, Zhao, Wang, and Xie}}}
\bibcite{teixeira2009pem}{{36}{[n.d.]}{{Teixeira et~al\mbox  {.}}}{{Teixeira, Jung, Dublon, and Savvides}}}
\bibcite{transafety1997study}{{37}{1997}{{TranSafety}}{{TranSafety}}}
\bibcite{valente2019privacy}{{38}{2019}{{Valente et~al\mbox  {.}}}{{Valente, Koneru, and Cardenas}}}
\bibcite{van2008feature}{{39}{2008}{{Van~Dorp and Groen}}{{Van~Dorp and Groen}}}
\bibcite{waite2002sonar}{{40}{2002}{{Waite}}{{Waite}}}
\bibcite{wang2016gait}{{41}{[n.d.]}{{Wang et~al\mbox  {.}}}{{Wang, Liu, and Shahzad}}}
\bibcite{wang2018gait}{{42}{2018}{{Wang et~al\mbox  {.}}}{{Wang, Chen, Bhuiyan, Han, Zhao, and Li}}}
\bibcite{wold1987principal}{{43}{1987}{{Wold et~al\mbox  {.}}}{{Wold, Esbensen, and Geladi}}}
\bibcite{wu2017device}{{44}{2017}{{Wu et~al\mbox  {.}}}{{Wu, Zhang, Xu, Wang, and Li}}}
\bibcite{xu2019acousticid}{{45}{2019}{{Xu et~al\mbox  {.}}}{{Xu, Yu, Wang, Guo, and Han}}}
\bibcite{zeng2016wiwho}{{46}{2016}{{Zeng et~al\mbox  {.}}}{{Zeng, Pathak, and Mohapatra}}}
\bibcite{zhang2016wifi}{{47}{[n.d.]b}{{Zhang et~al\mbox  {.}}}{{Zhang, Wei, Hu, and Kanhere}}}
\bibcite{zhang2017hearing}{{48}{[n.d.]a}{{Zhang et~al\mbox  {.}}}{{Zhang, Tan, and Yang}}}
\bibcite{zhang2015accelerometer}{{49}{2015}{{Zhang et~al\mbox  {.}}}{{Zhang, Pan, Jia, Lu, Wang, and Wu}}}
\bibcite{zhang2007acoustic}{{50}{2007}{{Zhang et~al\mbox  {.}}}{{Zhang, Pouliquen, Waxman, and Andreou}}}
\bibcite{zhao2019mid}{{51}{2019}{{Zhao et~al\mbox  {.}}}{{Zhao, Lu, Wang, Chen, Wang, Trigoni, and Markham}}}
\newlabel{tocindent-1}{0pt}
\newlabel{tocindent0}{0pt}
\newlabel{tocindent1}{4.65pt}
\newlabel{tocindent2}{16.14998pt}
\newlabel{tocindent3}{0pt}
\newlabel{TotPages}{{25}{25}{}{page.25}{}}
\gdef \@abspage@last{25}
