This is BibTeX, Version 0.99d (TeX Live 2020)
Capacity: max_strings=200000, hash_size=200000, hash_prime=170003
The top-level auxiliary file: main.aux
The style file: ACM-Reference-Format.bst
Reallocated singl_function (elt_size=4) to 100 items from 50.
Reallocated wiz_functions (elt_size=4) to 6000 items from 3000.
Database file #1: ref.bib
Reallocated singl_function (elt_size=4) to 100 items from 50.
Reallocated glb_str_ptr (elt_size=4) to 20 items from 10.
Reallocated global_strs (elt_size=200001) to 20 items from 10.
Reallocated glb_str_end (elt_size=4) to 20 items from 10.
Reallocated singl_function (elt_size=4) to 100 items from 50.
Warning--empty publisher in chauhan2017breathprint
Warning--empty address in chauhan2017breathprint
Warning--empty school in degottex2010glottal
Warning--empty publisher in gafurov2007survey
Warning--empty address in gafurov2007survey
Warning--empty publisher in gupta2012soundwave
Warning--empty address in gupta2012soundwave
Warning--empty publisher in jenkins2007using
Warning--empty address in jenkins2007using
Warning--empty publisher in kalgaonkar2007acoustic
Warning--empty address in kalgaonkar2007acoustic
Warning--empty publisher in le2018human
Warning--empty address in le2018human
Warning--empty publisher in li2022experience
Warning--empty address in li2022experience
Warning--empty publisher in li2016side
Warning--empty address in li2016side
Warning--empty publisher in li2020your
Warning--empty address in li2020your
Warning--empty year in lu2018lippass
Warning--empty publisher in lu2018lippass
Warning--empty address in lu2018lippass
Warning--empty year in nandakumar2016fingerio
Warning--empty publisher in nandakumar2016fingerio
Warning--empty address in nandakumar2016fingerio
Warning--empty address in nicholas2010physics
Warning--empty publisher in orr2000smart
Warning--empty address in orr2000smart
Warning--empty publisher in pan2015indoor
Warning--empty address in pan2015indoor
Warning--empty year in ren2013smartphone
Warning--empty publisher in ren2013smartphone
Warning--empty address in ren2013smartphone
Warning--empty publisher in sun_2018_vskin
Warning--empty address in sun_2018_vskin
Warning--empty year in teixeira2009pem
Warning--empty publisher in teixeira2009pem
Warning--empty address in teixeira2009pem
Warning--no number and no volume in transafety1997study
Warning--page numbers missing in both pages and numpages fields in transafety1997study
Warning--empty publisher in valente2019privacy
Warning--empty address in valente2019privacy
Warning--empty address in waite2002sonar
Warning--empty year in wang2016gait
Warning--empty publisher in wang2016gait
Warning--empty address in wang2016gait
Warning--empty publisher in zeng2016wiwho
Warning--empty address in zeng2016wiwho
Warning--empty year in zhang2016wifi
Warning--empty publisher in zhang2016wifi
Warning--empty address in zhang2016wifi
Warning--empty year in zhang2017hearing
Warning--empty publisher in zhang2017hearing
Warning--empty address in zhang2017hearing
Warning--empty publisher in zhao2019mid
Warning--empty address in zhao2019mid
You've used 51 entries,
            5719 wiz_defined-function locations,
            1585 strings with 24750 characters,
and the built_in function-call counts, 63178 in all, are:
= -- 8008
> -- 2364
< -- 0
+ -- 782
- -- 788
* -- 4502
:= -- 6379
add.period$ -- 257
call.type$ -- 51
change.case$ -- 374
chr.to.int$ -- 50
cite$ -- 107
duplicate$ -- 5510
empty$ -- 3859
format.name$ -- 963
if$ -- 15569
int.to.chr$ -- 3
int.to.str$ -- 1
missing$ -- 210
newline$ -- 434
num.names$ -- 407
pop$ -- 2202
preamble$ -- 1
purify$ -- 790
quote$ -- 0
skip$ -- 1910
stack$ -- 0
substring$ -- 4557
swap$ -- 611
text.length$ -- 0
text.prefix$ -- 0
top$ -- 0
type$ -- 1158
warning$ -- 56
while$ -- 367
width$ -- 0
write$ -- 908
(There were 56 warnings)
