%!PS-Adobe-3.0 EPSF-3.0
%%Creator: (MATLAB, The Mathworks, Inc. Version 8.6.0.267246 \(R2015b\). Operating System: Windows 8)
%%Title: D:/paper/Fig/autocorrelation0.eps
%%CreationDate: 2019-05-16T01:35:22
%%Pages: (atend)
%%BoundingBox: 0 0 420 315
%%LanguageLevel: 2
%%EndComments
%%BeginProlog
%%BeginResource: procset (Apache XML Graphics Std ProcSet) 1.2 0
%%Version: 1.2 0
%%Copyright: (Copyright 2001-2003,2010 The Apache Software Foundation. License terms: http://www.apache.org/licenses/LICENSE-2.0)
/bd{bind def}bind def
/ld{load def}bd
/GR/grestore ld
/M/moveto ld
/LJ/setlinejoin ld
/C/curveto ld
/f/fill ld
/LW/setlinewidth ld
/GC/setgray ld
/t/show ld
/N/newpath ld
/CT/concat ld
/cp/closepath ld
/S/stroke ld
/L/lineto ld
/CC/setcmykcolor ld
/A/ashow ld
/GS/gsave ld
/RC/setrgbcolor ld
/RM/rmoveto ld
/ML/setmiterlimit ld
/re {4 2 roll M
1 index 0 rlineto
0 exch rlineto
neg 0 rlineto
cp } bd
/_ctm matrix def
/_tm matrix def
/BT { _ctm currentmatrix pop matrix _tm copy pop 0 0 moveto } bd
/ET { _ctm setmatrix } bd
/iTm { _ctm setmatrix _tm concat } bd
/Tm { _tm astore pop iTm 0 0 moveto } bd
/ux 0.0 def
/uy 0.0 def
/F {
  /Tp exch def
  /Tf exch def
  Tf findfont Tp scalefont setfont
  /cf Tf def  /cs Tp def
} bd
/ULS {currentpoint /uy exch def /ux exch def} bd
/ULE {
  /Tcx currentpoint pop def
  gsave
  newpath
  cf findfont cs scalefont dup
  /FontMatrix get 0 get /Ts exch def /FontInfo get dup
  /UnderlinePosition get Ts mul /To exch def
  /UnderlineThickness get Ts mul /Tt exch def
  ux uy To add moveto  Tcx uy To add lineto
  Tt setlinewidth stroke
  grestore
} bd
/OLE {
  /Tcx currentpoint pop def
  gsave
  newpath
  cf findfont cs scalefont dup
  /FontMatrix get 0 get /Ts exch def /FontInfo get dup
  /UnderlinePosition get Ts mul /To exch def
  /UnderlineThickness get Ts mul /Tt exch def
  ux uy To add cs add moveto Tcx uy To add cs add lineto
  Tt setlinewidth stroke
  grestore
} bd
/SOE {
  /Tcx currentpoint pop def
  gsave
  newpath
  cf findfont cs scalefont dup
  /FontMatrix get 0 get /Ts exch def /FontInfo get dup
  /UnderlinePosition get Ts mul /To exch def
  /UnderlineThickness get Ts mul /Tt exch def
  ux uy To add cs 10 mul 26 idiv add moveto Tcx uy To add cs 10 mul 26 idiv add lineto
  Tt setlinewidth stroke
  grestore
} bd
/QT {
/Y22 exch store
/X22 exch store
/Y21 exch store
/X21 exch store
currentpoint
/Y21 load 2 mul add 3 div exch
/X21 load 2 mul add 3 div exch
/X21 load 2 mul /X22 load add 3 div
/Y21 load 2 mul /Y22 load add 3 div
/X22 load /Y22 load curveto
} bd
/SSPD {
dup length /d exch dict def
{
/v exch def
/k exch def
currentpagedevice k known {
/cpdv currentpagedevice k get def
v cpdv ne {
/upd false def
/nullv v type /nulltype eq def
/nullcpdv cpdv type /nulltype eq def
nullv nullcpdv or
{
/upd true def
} {
/sametype v type cpdv type eq def
sametype {
v type /arraytype eq {
/vlen v length def
/cpdvlen cpdv length def
vlen cpdvlen eq {
0 1 vlen 1 sub {
/i exch def
/obj v i get def
/cpdobj cpdv i get def
obj cpdobj ne {
/upd true def
exit
} if
} for
} {
/upd true def
} ifelse
} {
v type /dicttype eq {
v {
/dv exch def
/dk exch def
/cpddv cpdv dk get def
dv cpddv ne {
/upd true def
exit
} if
} forall
} {
/upd true def
} ifelse
} ifelse
} if
} ifelse
upd true eq {
d k v put
} if
} if
} if
} forall
d length 0 gt {
d setpagedevice
} if
} bd
%%EndResource
%%BeginResource: procset (Apache XML Graphics EPS ProcSet) 1.0 0
%%Version: 1.0 0
%%Copyright: (Copyright 2002-2003 The Apache Software Foundation. License terms: http://www.apache.org/licenses/LICENSE-2.0)
/BeginEPSF { %def
/b4_Inc_state save def         % Save state for cleanup
/dict_count countdictstack def % Count objects on dict stack
/op_count count 1 sub def      % Count objects on operand stack
userdict begin                 % Push userdict on dict stack
/showpage { } def              % Redefine showpage, { } = null proc
0 setgray 0 setlinecap         % Prepare graphics state
1 setlinewidth 0 setlinejoin
10 setmiterlimit [ ] 0 setdash newpath
/languagelevel where           % If level not equal to 1 then
{pop languagelevel             % set strokeadjust and
1 ne                           % overprint to their defaults.
{false setstrokeadjust false setoverprint
} if
} if
} bd
/EndEPSF { %def
count op_count sub {pop} repeat            % Clean up stacks
countdictstack dict_count sub {end} repeat
b4_Inc_state restore
} bd
%%EndResource
%FOPBeginFontDict
%%IncludeResource: font Courier-Bold
%%IncludeResource: font Helvetica
%%IncludeResource: font Courier-BoldOblique
%%IncludeResource: font Courier-Oblique
%%IncludeResource: font Times-Roman
%%IncludeResource: font Helvetica-BoldOblique
%%IncludeResource: font Helvetica-Bold
%%IncludeResource: font Helvetica-Oblique
%%IncludeResource: font Times-BoldItalic
%%IncludeResource: font Courier
%%IncludeResource: font Times-Italic
%%IncludeResource: font Times-Bold
%%IncludeResource: font Symbol
%%IncludeResource: font ZapfDingbats
%FOPEndFontDict
%%BeginResource: encoding WinAnsiEncoding
/WinAnsiEncoding [
/.notdef /.notdef /.notdef /.notdef /.notdef
/.notdef /.notdef /.notdef /.notdef /.notdef
/.notdef /.notdef /.notdef /.notdef /.notdef
/.notdef /.notdef /.notdef /.notdef /.notdef
/.notdef /.notdef /.notdef /.notdef /.notdef
/.notdef /.notdef /.notdef /.notdef /.notdef
/.notdef /.notdef /space /exclam /quotedbl
/numbersign /dollar /percent /ampersand /quotesingle
/parenleft /parenright /asterisk /plus /comma
/hyphen /period /slash /zero /one
/two /three /four /five /six
/seven /eight /nine /colon /semicolon
/less /equal /greater /question /at
/A /B /C /D /E
/F /G /H /I /J
/K /L /M /N /O
/P /Q /R /S /T
/U /V /W /X /Y
/Z /bracketleft /backslash /bracketright /asciicircum
/underscore /quoteleft /a /b /c
/d /e /f /g /h
/i /j /k /l /m
/n /o /p /q /r
/s /t /u /v /w
/x /y /z /braceleft /bar
/braceright /asciitilde /bullet /Euro /bullet
/quotesinglbase /florin /quotedblbase /ellipsis /dagger
/daggerdbl /circumflex /perthousand /Scaron /guilsinglleft
/OE /bullet /Zcaron /bullet /bullet
/quoteleft /quoteright /quotedblleft /quotedblright /bullet
/endash /emdash /asciitilde /trademark /scaron
/guilsinglright /oe /bullet /zcaron /Ydieresis
/space /exclamdown /cent /sterling /currency
/yen /brokenbar /section /dieresis /copyright
/ordfeminine /guillemotleft /logicalnot /sfthyphen /registered
/macron /degree /plusminus /twosuperior /threesuperior
/acute /mu /paragraph /middot /cedilla
/onesuperior /ordmasculine /guillemotright /onequarter /onehalf
/threequarters /questiondown /Agrave /Aacute /Acircumflex
/Atilde /Adieresis /Aring /AE /Ccedilla
/Egrave /Eacute /Ecircumflex /Edieresis /Igrave
/Iacute /Icircumflex /Idieresis /Eth /Ntilde
/Ograve /Oacute /Ocircumflex /Otilde /Odieresis
/multiply /Oslash /Ugrave /Uacute /Ucircumflex
/Udieresis /Yacute /Thorn /germandbls /agrave
/aacute /acircumflex /atilde /adieresis /aring
/ae /ccedilla /egrave /eacute /ecircumflex
/edieresis /igrave /iacute /icircumflex /idieresis
/eth /ntilde /ograve /oacute /ocircumflex
/otilde /odieresis /divide /oslash /ugrave
/uacute /ucircumflex /udieresis /yacute /thorn
/ydieresis
] def
%%EndResource
%FOPBeginFontReencode
/Courier-Bold findfont
dup length dict begin
  {1 index /FID ne {def} {pop pop} ifelse} forall
  /Encoding WinAnsiEncoding def
  currentdict
end
/Courier-Bold exch definefont pop
/Helvetica findfont
dup length dict begin
  {1 index /FID ne {def} {pop pop} ifelse} forall
  /Encoding WinAnsiEncoding def
  currentdict
end
/Helvetica exch definefont pop
/Courier-BoldOblique findfont
dup length dict begin
  {1 index /FID ne {def} {pop pop} ifelse} forall
  /Encoding WinAnsiEncoding def
  currentdict
end
/Courier-BoldOblique exch definefont pop
/Courier-Oblique findfont
dup length dict begin
  {1 index /FID ne {def} {pop pop} ifelse} forall
  /Encoding WinAnsiEncoding def
  currentdict
end
/Courier-Oblique exch definefont pop
/Times-Roman findfont
dup length dict begin
  {1 index /FID ne {def} {pop pop} ifelse} forall
  /Encoding WinAnsiEncoding def
  currentdict
end
/Times-Roman exch definefont pop
/Helvetica-BoldOblique findfont
dup length dict begin
  {1 index /FID ne {def} {pop pop} ifelse} forall
  /Encoding WinAnsiEncoding def
  currentdict
end
/Helvetica-BoldOblique exch definefont pop
/Helvetica-Bold findfont
dup length dict begin
  {1 index /FID ne {def} {pop pop} ifelse} forall
  /Encoding WinAnsiEncoding def
  currentdict
end
/Helvetica-Bold exch definefont pop
/Helvetica-Oblique findfont
dup length dict begin
  {1 index /FID ne {def} {pop pop} ifelse} forall
  /Encoding WinAnsiEncoding def
  currentdict
end
/Helvetica-Oblique exch definefont pop
/Times-BoldItalic findfont
dup length dict begin
  {1 index /FID ne {def} {pop pop} ifelse} forall
  /Encoding WinAnsiEncoding def
  currentdict
end
/Times-BoldItalic exch definefont pop
/Courier findfont
dup length dict begin
  {1 index /FID ne {def} {pop pop} ifelse} forall
  /Encoding WinAnsiEncoding def
  currentdict
end
/Courier exch definefont pop
/Times-Italic findfont
dup length dict begin
  {1 index /FID ne {def} {pop pop} ifelse} forall
  /Encoding WinAnsiEncoding def
  currentdict
end
/Times-Italic exch definefont pop
/Times-Bold findfont
dup length dict begin
  {1 index /FID ne {def} {pop pop} ifelse} forall
  /Encoding WinAnsiEncoding def
  currentdict
end
/Times-Bold exch definefont pop
%FOPEndFontReencode
%%EndProlog
%%Page: 1 1
%%PageBoundingBox: 0 0 420 315
%%BeginPageSetup
[1 0 0 -1 0 315] CT
%%EndPageSetup
GS
[0.6 0 0 0.6 0 0] CT
1 GC
N
0 0 700 525 re
f
GR
GS
[0.6 0 0 0.6 0 0] CT
1 GC
N
0 0 700 525 re
f
GR
GS
[0.6 0 0 0.6 0 0] CT
1 GC
N
91 467 M
634 467 L
634 39 L
91 39 L
cp
f
GR
GS
[0.6 0 0 0.6 0 0] CT
0.149 GC
2 setlinecap
1 LJ
0.833 LW
N
91 467 M
634 467 L
S
GR
GS
[0.6 0 0 0.6 0 0] CT
0.149 GC
2 setlinecap
1 LJ
0.833 LW
N
91 39 M
634 39 L
S
GR
GS
[0.6 0 0 0.6 0 0] CT
0.149 GC
2 setlinecap
1 LJ
0.833 LW
N
91 467 M
91 461.57 L
S
GR
GS
[0.6 0 0 0.6 0 0] CT
0.149 GC
2 setlinecap
1 LJ
0.833 LW
N
158.875 467 M
158.875 461.57 L
S
GR
GS
[0.6 0 0 0.6 0 0] CT
0.149 GC
2 setlinecap
1 LJ
0.833 LW
N
226.75 467 M
226.75 461.57 L
S
GR
GS
[0.6 0 0 0.6 0 0] CT
0.149 GC
2 setlinecap
1 LJ
0.833 LW
N
294.625 467 M
294.625 461.57 L
S
GR
GS
[0.6 0 0 0.6 0 0] CT
0.149 GC
2 setlinecap
1 LJ
0.833 LW
N
362.5 467 M
362.5 461.57 L
S
GR
GS
[0.6 0 0 0.6 0 0] CT
0.149 GC
2 setlinecap
1 LJ
0.833 LW
N
430.375 467 M
430.375 461.57 L
S
GR
GS
[0.6 0 0 0.6 0 0] CT
0.149 GC
2 setlinecap
1 LJ
0.833 LW
N
498.25 467 M
498.25 461.57 L
S
GR
GS
[0.6 0 0 0.6 0 0] CT
0.149 GC
2 setlinecap
1 LJ
0.833 LW
N
566.125 467 M
566.125 461.57 L
S
GR
GS
[0.6 0 0 0.6 0 0] CT
0.149 GC
2 setlinecap
1 LJ
0.833 LW
N
634 467 M
634 461.57 L
S
GR
GS
[0.6 0 0 0.6 0 0] CT
0.149 GC
2 setlinecap
1 LJ
0.833 LW
N
91 39 M
91 44.43 L
S
GR
GS
[0.6 0 0 0.6 0 0] CT
0.149 GC
2 setlinecap
1 LJ
0.833 LW
N
158.875 39 M
158.875 44.43 L
S
GR
GS
[0.6 0 0 0.6 0 0] CT
0.149 GC
2 setlinecap
1 LJ
0.833 LW
N
226.75 39 M
226.75 44.43 L
S
GR
GS
[0.6 0 0 0.6 0 0] CT
0.149 GC
2 setlinecap
1 LJ
0.833 LW
N
294.625 39 M
294.625 44.43 L
S
GR
GS
[0.6 0 0 0.6 0 0] CT
0.149 GC
2 setlinecap
1 LJ
0.833 LW
N
362.5 39 M
362.5 44.43 L
S
GR
GS
[0.6 0 0 0.6 0 0] CT
0.149 GC
2 setlinecap
1 LJ
0.833 LW
N
430.375 39 M
430.375 44.43 L
S
GR
GS
[0.6 0 0 0.6 0 0] CT
0.149 GC
2 setlinecap
1 LJ
0.833 LW
N
498.25 39 M
498.25 44.43 L
S
GR
GS
[0.6 0 0 0.6 0 0] CT
0.149 GC
2 setlinecap
1 LJ
0.833 LW
N
566.125 39 M
566.125 44.43 L
S
GR
GS
[0.6 0 0 0.6 0 0] CT
0.149 GC
2 setlinecap
1 LJ
0.833 LW
N
634 39 M
634 44.43 L
S
GR
GS
[0.6 0 0 0.6 54.6 284.60001] CT
0.149 GC
/Helvetica 20 F
GS
[1 0 0 1 0 0] CT
-6 19 moveto 
1 -1 scale
(0) t 
GR
GR
GS
[0.6 0 0 0.6 95.325 284.60001] CT
0.149 GC
/Helvetica 20 F
GS
[1 0 0 1 0 0] CT
-14 19 moveto 
1 -1 scale
(0.5) t 
GR
GR
GS
[0.6 0 0 0.6 136.05 284.60001] CT
0.149 GC
/Helvetica 20 F
GS
[1 0 0 1 0 0] CT
-6 19 moveto 
1 -1 scale
(1) t 
GR
GR
GS
[0.6 0 0 0.6 176.775 284.60001] CT
0.149 GC
/Helvetica 20 F
GS
[1 0 0 1 0 0] CT
-14 19 moveto 
1 -1 scale
(1.5) t 
GR
GR
GS
[0.6 0 0 0.6 217.5 284.60001] CT
0.149 GC
/Helvetica 20 F
GS
[1 0 0 1 0 0] CT
-6 19 moveto 
1 -1 scale
(2) t 
GR
GR
GS
[0.6 0 0 0.6 258.225 284.60001] CT
0.149 GC
/Helvetica 20 F
GS
[1 0 0 1 0 0] CT
-14 19 moveto 
1 -1 scale
(2.5) t 
GR
GR
GS
[0.6 0 0 0.6 298.95 284.60001] CT
0.149 GC
/Helvetica 20 F
GS
[1 0 0 1 0 0] CT
-6 19 moveto 
1 -1 scale
(3) t 
GR
GR
GS
[0.6 0 0 0.6 339.675 284.60001] CT
0.149 GC
/Helvetica 20 F
GS
[1 0 0 1 0 0] CT
-14 19 moveto 
1 -1 scale
(3.5) t 
GR
GR
GS
[0.6 0 0 0.6 380.4 284.60001] CT
0.149 GC
/Helvetica 20 F
GS
[1 0 0 1 0 0] CT
-6 19 moveto 
1 -1 scale
(4) t 
GR
GR
GS
[0.6 0 0 0.6 217.50015 299.4] CT
0.149 GC
/Helvetica 22 F
GS
[1 0 0 1 0 0] CT
-40.5 21 moveto 
1 -1 scale
(Time \(s\)) t 
GR
GR
GS
[0.6 0 0 0.6 0 0] CT
0.149 GC
2 setlinecap
1 LJ
0.833 LW
N
91 467 M
91 39 L
S
GR
GS
[0.6 0 0 0.6 0 0] CT
0.149 GC
2 setlinecap
1 LJ
0.833 LW
N
634 467 M
634 39 L
S
GR
GS
[0.6 0 0 0.6 0 0] CT
0.149 GC
2 setlinecap
1 LJ
0.833 LW
N
91 467 M
96.43 467 L
S
GR
GS
[0.6 0 0 0.6 0 0] CT
0.149 GC
2 setlinecap
1 LJ
0.833 LW
N
91 419.444 M
96.43 419.444 L
S
GR
GS
[0.6 0 0 0.6 0 0] CT
0.149 GC
2 setlinecap
1 LJ
0.833 LW
N
91 371.889 M
96.43 371.889 L
S
GR
GS
[0.6 0 0 0.6 0 0] CT
0.149 GC
2 setlinecap
1 LJ
0.833 LW
N
91 324.333 M
96.43 324.333 L
S
GR
GS
[0.6 0 0 0.6 0 0] CT
0.149 GC
2 setlinecap
1 LJ
0.833 LW
N
91 276.778 M
96.43 276.778 L
S
GR
GS
[0.6 0 0 0.6 0 0] CT
0.149 GC
2 setlinecap
1 LJ
0.833 LW
N
91 229.222 M
96.43 229.222 L
S
GR
GS
[0.6 0 0 0.6 0 0] CT
0.149 GC
2 setlinecap
1 LJ
0.833 LW
N
91 181.667 M
96.43 181.667 L
S
GR
GS
[0.6 0 0 0.6 0 0] CT
0.149 GC
2 setlinecap
1 LJ
0.833 LW
N
91 134.111 M
96.43 134.111 L
S
GR
GS
[0.6 0 0 0.6 0 0] CT
0.149 GC
2 setlinecap
1 LJ
0.833 LW
N
91 86.556 M
96.43 86.556 L
S
GR
GS
[0.6 0 0 0.6 0 0] CT
0.149 GC
2 setlinecap
1 LJ
0.833 LW
N
91 39 M
96.43 39 L
S
GR
GS
[0.6 0 0 0.6 0 0] CT
0.149 GC
2 setlinecap
1 LJ
0.833 LW
N
634 467 M
628.57 467 L
S
GR
GS
[0.6 0 0 0.6 0 0] CT
0.149 GC
2 setlinecap
1 LJ
0.833 LW
N
634 419.444 M
628.57 419.444 L
S
GR
GS
[0.6 0 0 0.6 0 0] CT
0.149 GC
2 setlinecap
1 LJ
0.833 LW
N
634 371.889 M
628.57 371.889 L
S
GR
GS
[0.6 0 0 0.6 0 0] CT
0.149 GC
2 setlinecap
1 LJ
0.833 LW
N
634 324.333 M
628.57 324.333 L
S
GR
GS
[0.6 0 0 0.6 0 0] CT
0.149 GC
2 setlinecap
1 LJ
0.833 LW
N
634 276.778 M
628.57 276.778 L
S
GR
GS
[0.6 0 0 0.6 0 0] CT
0.149 GC
2 setlinecap
1 LJ
0.833 LW
N
634 229.222 M
628.57 229.222 L
S
GR
GS
[0.6 0 0 0.6 0 0] CT
0.149 GC
2 setlinecap
1 LJ
0.833 LW
N
634 181.667 M
628.57 181.667 L
S
GR
GS
[0.6 0 0 0.6 0 0] CT
0.149 GC
2 setlinecap
1 LJ
0.833 LW
N
634 134.111 M
628.57 134.111 L
S
GR
GS
[0.6 0 0 0.6 0 0] CT
0.149 GC
2 setlinecap
1 LJ
0.833 LW
N
634 86.556 M
628.57 86.556 L
S
GR
GS
[0.6 0 0 0.6 0 0] CT
0.149 GC
2 setlinecap
1 LJ
0.833 LW
N
634 39 M
628.57 39 L
S
GR
GS
[0.6 0 0 0.6 50.2 280.2] CT
0.149 GC
/Helvetica 20 F
GS
[1 0 0 1 0 0] CT
-29 7.5 moveto 
1 -1 scale
(-60) t 
GR
GR
GS
[0.6 0 0 0.6 50.2 251.66667] CT
0.149 GC
/Helvetica 20 F
GS
[1 0 0 1 0 0] CT
-29 7.5 moveto 
1 -1 scale
(-40) t 
GR
GR
GS
[0.6 0 0 0.6 50.2 223.13333] CT
0.149 GC
/Helvetica 20 F
GS
[1 0 0 1 0 0] CT
-29 7.5 moveto 
1 -1 scale
(-20) t 
GR
GR
GS
[0.6 0 0 0.6 50.2 194.60001] CT
0.149 GC
/Helvetica 20 F
GS
[1 0 0 1 0 0] CT
-12 7.5 moveto 
1 -1 scale
(0) t 
GR
GR
GS
[0.6 0 0 0.6 50.2 166.06666] CT
0.149 GC
/Helvetica 20 F
GS
[1 0 0 1 0 0] CT
-23 7.5 moveto 
1 -1 scale
(20) t 
GR
GR
GS
[0.6 0 0 0.6 50.2 137.53334] CT
0.149 GC
/Helvetica 20 F
GS
[1 0 0 1 0 0] CT
-23 7.5 moveto 
1 -1 scale
(40) t 
GR
GR
GS
[0.6 0 0 0.6 50.2 109] CT
0.149 GC
/Helvetica 20 F
GS
[1 0 0 1 0 0] CT
-23 7.5 moveto 
1 -1 scale
(60) t 
GR
GR
GS
[0.6 0 0 0.6 50.2 80.46667] CT
0.149 GC
/Helvetica 20 F
GS
[1 0 0 1 0 0] CT
-23 7.5 moveto 
1 -1 scale
(80) t 
GR
GR
GS
[0.6 0 0 0.6 50.2 51.93333] CT
0.149 GC
/Helvetica 20 F
GS
[1 0 0 1 0 0] CT
-34 7.5 moveto 
1 -1 scale
(100) t 
GR
GR
GS
[0.6 0 0 0.6 50.2 23.4] CT
0.149 GC
/Helvetica 20 F
GS
[1 0 0 1 0 0] CT
-34 7.5 moveto 
1 -1 scale
(120) t 
GR
GR
GS
[0 -0.6 0.6 0 26.8 151.79988] CT
0.149 GC
/Helvetica 22 F
GS
[1 0 0 1 0 0] CT
-103.5 -5 moveto 
1 -1 scale
(Autocorrelation value) t 
GR
GR
GS
[0.6 0 0 0.6 0 0] CT
1 LJ
0.833 LW
N
91 52.767 M
93.035 58.237 L
95.069 70.737 L
97.104 88.765 L
99.139 110.882 L
101.174 135.995 L
103.208 163.109 L
105.243 190.932 L
107.278 218.737 L
109.312 245.746 L
111.347 271.821 L
113.382 296.434 L
115.417 319.361 L
117.451 341.031 L
119.486 361.41 L
121.521 380.302 L
123.555 397.599 L
125.59 412.842 L
127.625 425.975 L
129.66 435.94 L
131.694 442.294 L
133.729 444.828 L
135.764 443.585 L
137.798 438.764 L
139.833 430.408 L
141.868 418.98 L
143.902 405.267 L
145.937 389.852 L
147.972 372.949 L
150.007 354.374 L
152.041 334.611 L
154.076 313.58 L
156.111 291.346 L
158.145 268.053 L
160.18 244.21 L
162.215 220.539 L
164.25 197.493 L
166.284 176.053 L
168.319 157.024 L
170.354 141.547 L
172.388 130.798 L
174.423 125.585 L
176.458 126.503 L
178.493 134.052 L
180.527 147.275 L
182.562 164.946 L
184.597 185.36 L
186.631 207.74 L
188.666 231.042 L
190.701 254.776 L
S
GR
GS
[0.6 0 0 0.6 0 0] CT
1 LJ
0.833 LW
N
188.666 231.042 M
190.701 254.776 L
192.736 278.429 L
194.77 301.497 L
196.805 323.827 L
198.84 345.058 L
200.874 365.145 L
202.909 384.09 L
204.944 401.991 L
206.979 418.465 L
209.013 433.043 L
211.048 445.29 L
213.083 454.703 L
215.117 460.871 L
217.152 463.902 L
219.187 463.645 L
221.221 460.166 L
223.256 453.951 L
225.291 445.362 L
227.326 434.58 L
229.36 422.136 L
231.395 408.204 L
233.43 392.762 L
235.464 376.003 L
237.499 358.072 L
239.534 338.858 L
241.569 318.586 L
243.603 297.5 L
245.638 276.285 L
247.673 255.706 L
249.707 236.147 L
251.742 218.474 L
253.777 203.229 L
255.812 191.678 L
257.846 184.706 L
259.881 183.008 L
261.916 186.705 L
263.95 195.019 L
265.985 207.236 L
268.02 222.33 L
270.055 239.188 L
272.089 257.213 L
274.124 275.594 L
276.159 293.908 L
278.193 311.972 L
280.228 329.627 L
282.263 346.914 L
284.298 363.699 L
286.332 379.807 L
288.367 395.06 L
290.402 409.261 L
292.436 422.283 L
S
GR
GS
[0.6 0 0 0.6 0 0] CT
1 LJ
0.833 LW
N
290.402 409.261 M
292.436 422.283 L
294.471 433.757 L
296.506 443.066 L
298.54 449.75 L
300.575 453.545 L
302.61 454.942 L
304.645 453.376 L
306.679 449.355 L
308.714 442.773 L
310.749 434.474 L
312.783 424.99 L
314.818 414.394 L
316.853 402.931 L
318.888 390.458 L
320.922 376.99 L
322.957 362.45 L
324.992 346.854 L
327.026 330.519 L
329.061 313.764 L
331.096 297.083 L
333.131 280.903 L
335.165 265.829 L
337.2 252.517 L
339.235 241.322 L
341.269 233.377 L
343.304 228.948 L
345.339 228.986 L
347.374 233.079 L
349.408 240.777 L
351.443 250.982 L
353.478 262.988 L
355.512 275.96 L
357.547 289.421 L
359.582 303.005 L
361.617 316.656 L
363.651 330.085 L
365.686 343.037 L
367.721 355.466 L
369.755 367.385 L
371.79 379.145 L
373.825 390.352 L
375.86 400.944 L
377.894 410.454 L
379.929 418.588 L
381.964 425.23 L
383.998 429.967 L
386.033 432.68 L
388.068 433.433 L
390.103 432.331 L
392.137 429.481 L
394.172 424.885 L
S
GR
GS
[0.6 0 0 0.6 0 0] CT
1 LJ
0.833 LW
N
392.137 429.481 M
394.172 424.885 L
396.207 418.985 L
398.241 412.077 L
400.276 404.308 L
402.311 395.554 L
404.345 385.898 L
406.38 375.424 L
408.415 363.979 L
410.45 351.987 L
412.484 339.616 L
414.519 327.191 L
416.554 315.111 L
418.588 303.507 L
420.623 292.978 L
422.658 283.857 L
424.693 276.797 L
426.727 272.184 L
428.762 270.368 L
430.797 271.746 L
432.831 275.493 L
434.866 281.395 L
436.901 288.623 L
438.936 296.794 L
440.97 305.506 L
443.005 314.319 L
445.04 323.094 L
447.074 331.789 L
449.109 340.403 L
451.144 348.703 L
453.179 356.63 L
455.213 364.243 L
457.248 371.422 L
459.283 378.062 L
461.317 384.008 L
463.352 389.023 L
465.387 393.188 L
467.422 395.986 L
469.456 397.326 L
471.491 397.203 L
473.526 395.739 L
475.56 393.389 L
477.595 390.019 L
479.63 385.912 L
481.664 381.129 L
483.699 375.83 L
485.734 369.937 L
487.769 363.477 L
489.803 356.537 L
491.838 349.04 L
493.873 341.119 L
495.907 332.944 L
S
GR
GS
[0.6 0 0 0.6 0 0] CT
1 LJ
0.833 LW
N
493.873 341.119 M
495.907 332.944 L
497.942 324.786 L
499.977 317.079 L
502.012 310.009 L
504.046 303.642 L
506.081 298.119 L
508.116 293.752 L
510.15 290.511 L
512.185 288.694 L
514.22 288.558 L
516.255 289.964 L
518.289 292.452 L
520.324 295.742 L
522.359 299.412 L
524.393 303.275 L
526.428 307.207 L
528.463 311.12 L
530.498 315.021 L
532.532 318.91 L
534.567 322.927 L
536.602 327.1 L
538.636 331.239 L
540.671 335.24 L
542.706 338.887 L
544.741 341.989 L
546.775 344.487 L
548.81 346.362 L
550.845 347.511 L
552.879 347.851 L
554.914 347.544 L
556.949 346.238 L
558.984 344.239 L
561.018 341.958 L
563.053 339.473 L
565.088 336.78 L
567.122 333.941 L
569.157 331.01 L
571.192 328.027 L
573.226 325.016 L
575.261 321.988 L
577.296 318.83 L
579.331 315.435 L
581.365 311.968 L
583.4 308.638 L
585.435 305.67 L
587.469 302.883 L
589.504 300.315 L
591.539 298.035 L
593.574 296.142 L
595.608 294.682 L
597.643 293.664 L
S
GR
GS
[0.6 0 0 0.6 0 0] CT
1 LJ
0.833 LW
N
595.608 294.682 M
597.643 293.664 L
599.678 293.191 L
601.712 293.503 L
603.747 294.239 L
605.782 295.204 L
607.817 296.371 L
609.851 297.844 L
611.886 299.514 L
613.921 301.335 L
615.955 303.257 L
617.99 305.292 L
620.025 307.498 L
622.06 309.785 L
624.094 312.039 L
626.129 314.214 L
628.164 316.248 L
630.198 318.139 L
632.233 319.786 L
634.054 321.023 L
S
GR
%%Trailer
%%Pages: 1
%%EOF
