%!PS-Adobe-3.0 EPSF-3.0
%%Creator: (MATLAB, The Mathworks, Inc. Version 8.6.0.267246 \(R2015b\). Operating System: Windows 8)
%%Title: D:/paper/Fig/different_time.eps
%%CreationDate: 2019-05-15T02:32:27
%%Pages: (atend)
%%BoundingBox: 0 0 510 255
%%LanguageLevel: 2
%%EndComments
%%BeginProlog
%%BeginResource: procset (Apache XML Graphics Std ProcSet) 1.2 0
%%Version: 1.2 0
%%Copyright: (Copyright 2001-2003,2010 The Apache Software Foundation. License terms: http://www.apache.org/licenses/LICENSE-2.0)
/bd{bind def}bind def
/ld{load def}bd
/GR/grestore ld
/M/moveto ld
/LJ/setlinejoin ld
/C/curveto ld
/f/fill ld
/LW/setlinewidth ld
/GC/setgray ld
/t/show ld
/N/newpath ld
/CT/concat ld
/cp/closepath ld
/S/stroke ld
/L/lineto ld
/CC/setcmykcolor ld
/A/ashow ld
/GS/gsave ld
/RC/setrgbcolor ld
/RM/rmoveto ld
/ML/setmiterlimit ld
/re {4 2 roll M
1 index 0 rlineto
0 exch rlineto
neg 0 rlineto
cp } bd
/_ctm matrix def
/_tm matrix def
/BT { _ctm currentmatrix pop matrix _tm copy pop 0 0 moveto } bd
/ET { _ctm setmatrix } bd
/iTm { _ctm setmatrix _tm concat } bd
/Tm { _tm astore pop iTm 0 0 moveto } bd
/ux 0.0 def
/uy 0.0 def
/F {
  /Tp exch def
  /Tf exch def
  Tf findfont Tp scalefont setfont
  /cf Tf def  /cs Tp def
} bd
/ULS {currentpoint /uy exch def /ux exch def} bd
/ULE {
  /Tcx currentpoint pop def
  gsave
  newpath
  cf findfont cs scalefont dup
  /FontMatrix get 0 get /Ts exch def /FontInfo get dup
  /UnderlinePosition get Ts mul /To exch def
  /UnderlineThickness get Ts mul /Tt exch def
  ux uy To add moveto  Tcx uy To add lineto
  Tt setlinewidth stroke
  grestore
} bd
/OLE {
  /Tcx currentpoint pop def
  gsave
  newpath
  cf findfont cs scalefont dup
  /FontMatrix get 0 get /Ts exch def /FontInfo get dup
  /UnderlinePosition get Ts mul /To exch def
  /UnderlineThickness get Ts mul /Tt exch def
  ux uy To add cs add moveto Tcx uy To add cs add lineto
  Tt setlinewidth stroke
  grestore
} bd
/SOE {
  /Tcx currentpoint pop def
  gsave
  newpath
  cf findfont cs scalefont dup
  /FontMatrix get 0 get /Ts exch def /FontInfo get dup
  /UnderlinePosition get Ts mul /To exch def
  /UnderlineThickness get Ts mul /Tt exch def
  ux uy To add cs 10 mul 26 idiv add moveto Tcx uy To add cs 10 mul 26 idiv add lineto
  Tt setlinewidth stroke
  grestore
} bd
/QT {
/Y22 exch store
/X22 exch store
/Y21 exch store
/X21 exch store
currentpoint
/Y21 load 2 mul add 3 div exch
/X21 load 2 mul add 3 div exch
/X21 load 2 mul /X22 load add 3 div
/Y21 load 2 mul /Y22 load add 3 div
/X22 load /Y22 load curveto
} bd
/SSPD {
dup length /d exch dict def
{
/v exch def
/k exch def
currentpagedevice k known {
/cpdv currentpagedevice k get def
v cpdv ne {
/upd false def
/nullv v type /nulltype eq def
/nullcpdv cpdv type /nulltype eq def
nullv nullcpdv or
{
/upd true def
} {
/sametype v type cpdv type eq def
sametype {
v type /arraytype eq {
/vlen v length def
/cpdvlen cpdv length def
vlen cpdvlen eq {
0 1 vlen 1 sub {
/i exch def
/obj v i get def
/cpdobj cpdv i get def
obj cpdobj ne {
/upd true def
exit
} if
} for
} {
/upd true def
} ifelse
} {
v type /dicttype eq {
v {
/dv exch def
/dk exch def
/cpddv cpdv dk get def
dv cpddv ne {
/upd true def
exit
} if
} forall
} {
/upd true def
} ifelse
} ifelse
} if
} ifelse
upd true eq {
d k v put
} if
} if
} if
} forall
d length 0 gt {
d setpagedevice
} if
} bd
%%EndResource
%%BeginResource: procset (Apache XML Graphics EPS ProcSet) 1.0 0
%%Version: 1.0 0
%%Copyright: (Copyright 2002-2003 The Apache Software Foundation. License terms: http://www.apache.org/licenses/LICENSE-2.0)
/BeginEPSF { %def
/b4_Inc_state save def         % Save state for cleanup
/dict_count countdictstack def % Count objects on dict stack
/op_count count 1 sub def      % Count objects on operand stack
userdict begin                 % Push userdict on dict stack
/showpage { } def              % Redefine showpage, { } = null proc
0 setgray 0 setlinecap         % Prepare graphics state
1 setlinewidth 0 setlinejoin
10 setmiterlimit [ ] 0 setdash newpath
/languagelevel where           % If level not equal to 1 then
{pop languagelevel             % set strokeadjust and
1 ne                           % overprint to their defaults.
{false setstrokeadjust false setoverprint
} if
} if
} bd
/EndEPSF { %def
count op_count sub {pop} repeat            % Clean up stacks
countdictstack dict_count sub {end} repeat
b4_Inc_state restore
} bd
%%EndResource
%FOPBeginFontDict
%%IncludeResource: font Courier-Bold
%%IncludeResource: font Helvetica
%%IncludeResource: font Courier-BoldOblique
%%IncludeResource: font Courier-Oblique
%%IncludeResource: font Times-Roman
%%IncludeResource: font Helvetica-BoldOblique
%%IncludeResource: font Helvetica-Bold
%%IncludeResource: font Helvetica-Oblique
%%IncludeResource: font Times-BoldItalic
%%IncludeResource: font Courier
%%IncludeResource: font Times-Italic
%%IncludeResource: font Times-Bold
%%IncludeResource: font Symbol
%%IncludeResource: font ZapfDingbats
%FOPEndFontDict
%%BeginResource: encoding WinAnsiEncoding
/WinAnsiEncoding [
/.notdef /.notdef /.notdef /.notdef /.notdef
/.notdef /.notdef /.notdef /.notdef /.notdef
/.notdef /.notdef /.notdef /.notdef /.notdef
/.notdef /.notdef /.notdef /.notdef /.notdef
/.notdef /.notdef /.notdef /.notdef /.notdef
/.notdef /.notdef /.notdef /.notdef /.notdef
/.notdef /.notdef /space /exclam /quotedbl
/numbersign /dollar /percent /ampersand /quotesingle
/parenleft /parenright /asterisk /plus /comma
/hyphen /period /slash /zero /one
/two /three /four /five /six
/seven /eight /nine /colon /semicolon
/less /equal /greater /question /at
/A /B /C /D /E
/F /G /H /I /J
/K /L /M /N /O
/P /Q /R /S /T
/U /V /W /X /Y
/Z /bracketleft /backslash /bracketright /asciicircum
/underscore /quoteleft /a /b /c
/d /e /f /g /h
/i /j /k /l /m
/n /o /p /q /r
/s /t /u /v /w
/x /y /z /braceleft /bar
/braceright /asciitilde /bullet /Euro /bullet
/quotesinglbase /florin /quotedblbase /ellipsis /dagger
/daggerdbl /circumflex /perthousand /Scaron /guilsinglleft
/OE /bullet /Zcaron /bullet /bullet
/quoteleft /quoteright /quotedblleft /quotedblright /bullet
/endash /emdash /asciitilde /trademark /scaron
/guilsinglright /oe /bullet /zcaron /Ydieresis
/space /exclamdown /cent /sterling /currency
/yen /brokenbar /section /dieresis /copyright
/ordfeminine /guillemotleft /logicalnot /sfthyphen /registered
/macron /degree /plusminus /twosuperior /threesuperior
/acute /mu /paragraph /middot /cedilla
/onesuperior /ordmasculine /guillemotright /onequarter /onehalf
/threequarters /questiondown /Agrave /Aacute /Acircumflex
/Atilde /Adieresis /Aring /AE /Ccedilla
/Egrave /Eacute /Ecircumflex /Edieresis /Igrave
/Iacute /Icircumflex /Idieresis /Eth /Ntilde
/Ograve /Oacute /Ocircumflex /Otilde /Odieresis
/multiply /Oslash /Ugrave /Uacute /Ucircumflex
/Udieresis /Yacute /Thorn /germandbls /agrave
/aacute /acircumflex /atilde /adieresis /aring
/ae /ccedilla /egrave /eacute /ecircumflex
/edieresis /igrave /iacute /icircumflex /idieresis
/eth /ntilde /ograve /oacute /ocircumflex
/otilde /odieresis /divide /oslash /ugrave
/uacute /ucircumflex /udieresis /yacute /thorn
/ydieresis
] def
%%EndResource
%FOPBeginFontReencode
/Courier-Bold findfont
dup length dict begin
  {1 index /FID ne {def} {pop pop} ifelse} forall
  /Encoding WinAnsiEncoding def
  currentdict
end
/Courier-Bold exch definefont pop
/Helvetica findfont
dup length dict begin
  {1 index /FID ne {def} {pop pop} ifelse} forall
  /Encoding WinAnsiEncoding def
  currentdict
end
/Helvetica exch definefont pop
/Courier-BoldOblique findfont
dup length dict begin
  {1 index /FID ne {def} {pop pop} ifelse} forall
  /Encoding WinAnsiEncoding def
  currentdict
end
/Courier-BoldOblique exch definefont pop
/Courier-Oblique findfont
dup length dict begin
  {1 index /FID ne {def} {pop pop} ifelse} forall
  /Encoding WinAnsiEncoding def
  currentdict
end
/Courier-Oblique exch definefont pop
/Times-Roman findfont
dup length dict begin
  {1 index /FID ne {def} {pop pop} ifelse} forall
  /Encoding WinAnsiEncoding def
  currentdict
end
/Times-Roman exch definefont pop
/Helvetica-BoldOblique findfont
dup length dict begin
  {1 index /FID ne {def} {pop pop} ifelse} forall
  /Encoding WinAnsiEncoding def
  currentdict
end
/Helvetica-BoldOblique exch definefont pop
/Helvetica-Bold findfont
dup length dict begin
  {1 index /FID ne {def} {pop pop} ifelse} forall
  /Encoding WinAnsiEncoding def
  currentdict
end
/Helvetica-Bold exch definefont pop
/Helvetica-Oblique findfont
dup length dict begin
  {1 index /FID ne {def} {pop pop} ifelse} forall
  /Encoding WinAnsiEncoding def
  currentdict
end
/Helvetica-Oblique exch definefont pop
/Times-BoldItalic findfont
dup length dict begin
  {1 index /FID ne {def} {pop pop} ifelse} forall
  /Encoding WinAnsiEncoding def
  currentdict
end
/Times-BoldItalic exch definefont pop
/Courier findfont
dup length dict begin
  {1 index /FID ne {def} {pop pop} ifelse} forall
  /Encoding WinAnsiEncoding def
  currentdict
end
/Courier exch definefont pop
/Times-Italic findfont
dup length dict begin
  {1 index /FID ne {def} {pop pop} ifelse} forall
  /Encoding WinAnsiEncoding def
  currentdict
end
/Times-Italic exch definefont pop
/Times-Bold findfont
dup length dict begin
  {1 index /FID ne {def} {pop pop} ifelse} forall
  /Encoding WinAnsiEncoding def
  currentdict
end
/Times-Bold exch definefont pop
%FOPEndFontReencode
%%EndProlog
%%Page: 1 1
%%PageBoundingBox: 0 0 510 255
%%BeginPageSetup
[1 0 0 -1 0 255] CT
%%EndPageSetup
GS
[0.60028 0 0 0.60028 0 -0.1181] CT
1 GC
N
0 0 850 425 re
f
GR
GS
[0.60028 0 0 0.60028 0 -0.1181] CT
1 GC
N
0 0 850 425 re
f
GR
GS
[0.60028 0 0 0.60028 0 -0.1181] CT
1 GC
N
111 378 M
769 378 L
769 32 L
111 32 L
cp
f
GR
GS
[0.60028 0 0 0.60028 0 -0.1181] CT
0.149 GC
2 setlinecap
1 LJ
0.833 LW
N
111 378 M
769 378 L
S
GR
GS
[0.60028 0 0 0.60028 0 -0.1181] CT
0.149 GC
2 setlinecap
1 LJ
0.833 LW
N
111 32 M
769 32 L
S
GR
GS
[0.60028 0 0 0.60028 0 -0.1181] CT
0.149 GC
2 setlinecap
1 LJ
0.833 LW
N
220.667 378 M
220.667 371.42 L
S
GR
GS
[0.60028 0 0 0.60028 0 -0.1181] CT
0.149 GC
2 setlinecap
1 LJ
0.833 LW
N
440 378 M
440 371.42 L
S
GR
GS
[0.60028 0 0 0.60028 0 -0.1181] CT
0.149 GC
2 setlinecap
1 LJ
0.833 LW
N
659.333 378 M
659.333 371.42 L
S
GR
GS
[0.60028 0 0 0.60028 0 -0.1181] CT
0.149 GC
2 setlinecap
1 LJ
0.833 LW
N
220.667 32 M
220.667 38.58 L
S
GR
GS
[0.60028 0 0 0.60028 0 -0.1181] CT
0.149 GC
2 setlinecap
1 LJ
0.833 LW
N
440 32 M
440 38.58 L
S
GR
GS
[0.60028 0 0 0.60028 0 -0.1181] CT
0.149 GC
2 setlinecap
1 LJ
0.833 LW
N
659.333 32 M
659.333 38.58 L
S
GR
GS
[0.60028 0 0 0.60028 132.46132 231.21868] CT
0.149 GC
/Helvetica 20 F
GS
[1 0 0 1 0 0] CT
-37.5 19 moveto 
1 -1 scale
(Person1) t 
GR
GR
GS
[0.60028 0 0 0.60028 264.12227 231.21868] CT
0.149 GC
/Helvetica 20 F
GS
[1 0 0 1 0 0] CT
-37.5 19 moveto 
1 -1 scale
(Person2) t 
GR
GR
GS
[0.60028 0 0 0.60028 395.78321 231.21868] CT
0.149 GC
/Helvetica 20 F
GS
[1 0 0 1 0 0] CT
-37.5 19 moveto 
1 -1 scale
(Person3) t 
GR
GR
GS
[0.60028 0 0 0.60028 0 -0.1181] CT
0.149 GC
2 setlinecap
1 LJ
0.833 LW
N
111 378 M
111 32 L
S
GR
GS
[0.60028 0 0 0.60028 0 -0.1181] CT
0.149 GC
2 setlinecap
1 LJ
0.833 LW
N
769 378 M
769 32 L
S
GR
GS
[0.60028 0 0 0.60028 0 -0.1181] CT
0.149 GC
2 setlinecap
1 LJ
0.833 LW
N
111 378 M
117.58 378 L
S
GR
GS
[0.60028 0 0 0.60028 0 -0.1181] CT
0.149 GC
2 setlinecap
1 LJ
0.833 LW
N
111 308.8 M
117.58 308.8 L
S
GR
GS
[0.60028 0 0 0.60028 0 -0.1181] CT
0.149 GC
2 setlinecap
1 LJ
0.833 LW
N
111 239.6 M
117.58 239.6 L
S
GR
GS
[0.60028 0 0 0.60028 0 -0.1181] CT
0.149 GC
2 setlinecap
1 LJ
0.833 LW
N
111 170.4 M
117.58 170.4 L
S
GR
GS
[0.60028 0 0 0.60028 0 -0.1181] CT
0.149 GC
2 setlinecap
1 LJ
0.833 LW
N
111 101.2 M
117.58 101.2 L
S
GR
GS
[0.60028 0 0 0.60028 0 -0.1181] CT
0.149 GC
2 setlinecap
1 LJ
0.833 LW
N
111 32 M
117.58 32 L
S
GR
GS
[0.60028 0 0 0.60028 0 -0.1181] CT
0.149 GC
2 setlinecap
1 LJ
0.833 LW
N
769 378 M
762.42 378 L
S
GR
GS
[0.60028 0 0 0.60028 0 -0.1181] CT
0.149 GC
2 setlinecap
1 LJ
0.833 LW
N
769 308.8 M
762.42 308.8 L
S
GR
GS
[0.60028 0 0 0.60028 0 -0.1181] CT
0.149 GC
2 setlinecap
1 LJ
0.833 LW
N
769 239.6 M
762.42 239.6 L
S
GR
GS
[0.60028 0 0 0.60028 0 -0.1181] CT
0.149 GC
2 setlinecap
1 LJ
0.833 LW
N
769 170.4 M
762.42 170.4 L
S
GR
GS
[0.60028 0 0 0.60028 0 -0.1181] CT
0.149 GC
2 setlinecap
1 LJ
0.833 LW
N
769 101.2 M
762.42 101.2 L
S
GR
GS
[0.60028 0 0 0.60028 0 -0.1181] CT
0.149 GC
2 setlinecap
1 LJ
0.833 LW
N
769 32 M
762.42 32 L
S
GR
GS
[0.60028 0 0 0.60028 62.1991 226.78694] CT
0.149 GC
/Helvetica 20 F
GS
[1 0 0 1 0 0] CT
-12 7.5 moveto 
1 -1 scale
(0) t 
GR
GR
GS
[0.60028 0 0 0.60028 62.1991 185.2477] CT
0.149 GC
/Helvetica 20 F
GS
[1 0 0 1 0 0] CT
-41 7.5 moveto 
1 -1 scale
(20%) t 
GR
GR
GS
[0.60028 0 0 0.60028 62.1991 143.70848] CT
0.149 GC
/Helvetica 20 F
GS
[1 0 0 1 0 0] CT
-41 7.5 moveto 
1 -1 scale
(40%) t 
GR
GR
GS
[0.60028 0 0 0.60028 62.1991 102.16925] CT
0.149 GC
/Helvetica 20 F
GS
[1 0 0 1 0 0] CT
-41 7.5 moveto 
1 -1 scale
(60%) t 
GR
GR
GS
[0.60028 0 0 0.60028 62.1991 60.63002] CT
0.149 GC
/Helvetica 20 F
GS
[1 0 0 1 0 0] CT
-41 7.5 moveto 
1 -1 scale
(80%) t 
GR
GR
GS
[0.60028 0 0 0.60028 62.1991 19.09079] CT
0.149 GC
/Helvetica 20 F
GS
[1 0 0 1 0 0] CT
-52 7.5 moveto 
1 -1 scale
(100%) t 
GR
GR
GS
[0.60028 0 0 0.60028 0 -0.1181] CT
0.149 GC
1 LJ
0.833 LW
N
111 378 M
769 378 L
S
GR
GS
[0.60028 0 0 0.60028 0 -0.1181] CT
0.208 0.165 0.525 RC
N
165.833 378 M
212.833 378 L
212.833 352.292 L
165.833 352.292 L
cp
f
GR
GS
[0.60028 0 0 0.60028 0 -0.1181] CT
0.208 0.165 0.525 RC
N
385.167 378 M
432.167 378 L
432.167 355.96 L
385.167 355.96 L
cp
f
GR
GS
[0.60028 0 0 0.60028 0 -0.1181] CT
0.208 0.165 0.525 RC
N
604.5 378 M
651.5 378 L
651.5 347.171 L
604.5 347.171 L
cp
f
GR
GS
[0.60028 0 0 0.60028 0 -0.1181] CT
10.0 ML
0.833 LW
N
165.833 378 M
165.833 352.292 L
212.833 352.292 L
212.833 378 L
cp
S
GR
GS
[0.60028 0 0 0.60028 0 -0.1181] CT
10.0 ML
0.833 LW
N
385.167 378 M
385.167 355.96 L
432.167 355.96 L
432.167 378 L
cp
S
GR
GS
[0.60028 0 0 0.60028 0 -0.1181] CT
10.0 ML
0.833 LW
N
604.5 378 M
604.5 347.171 L
651.5 347.171 L
651.5 378 L
cp
S
GR
GS
[0.60028 0 0 0.60028 0 -0.1181] CT
0.973 0.98 0.051 RC
N
228.5 378 M
275.5 378 L
275.5 347.171 L
228.5 347.171 L
cp
f
GR
GS
[0.60028 0 0 0.60028 0 -0.1181] CT
0.973 0.98 0.051 RC
N
447.833 378 M
494.833 378 L
494.833 347.102 L
447.833 347.102 L
cp
f
GR
GS
[0.60028 0 0 0.60028 0 -0.1181] CT
0.973 0.98 0.051 RC
N
667.167 378 M
714.167 378 L
714.167 346.722 L
667.167 346.722 L
cp
f
GR
GS
[0.60028 0 0 0.60028 0 -0.1181] CT
10.0 ML
0.833 LW
N
228.5 378 M
228.5 347.171 L
275.5 347.171 L
275.5 378 L
cp
S
GR
GS
[0.60028 0 0 0.60028 0 -0.1181] CT
10.0 ML
0.833 LW
N
447.833 378 M
447.833 347.102 L
494.833 347.102 L
494.833 378 L
cp
S
GR
GS
[0.60028 0 0 0.60028 0 -0.1181] CT
10.0 ML
0.833 LW
N
667.167 378 M
667.167 346.722 L
714.167 346.722 L
714.167 378 L
cp
S
GR
GS
[0.60028 0 0 0.60028 0 -0.1181] CT
1 GC
N
645 98 M
645 49 L
752 49 L
752 98 L
cp
f
GR
GS
[0.60028 0 0 0.60028 426.1973 37.51548] CT
/Helvetica 18 F
GS
[1 0 0 1 0 0] CT
0 6.5 moveto 
1 -1 scale
(FAR) t 
GR
GR
GS
[0.60028 0 0 0.60028 0 -0.1181] CT
0.208 0.165 0.525 RC
N
655 70.596 M
655 54.791 L
705 54.791 L
705 70.596 L
cp
f
GR
GS
[0.60028 0 0 0.60028 0 -0.1181] CT
10.0 ML
0.833 LW
N
655 70.596 M
655 54.791 L
705 54.791 L
705 70.596 L
cp
S
GR
GS
[0.60028 0 0 0.60028 426.1973 50.48916] CT
/Helvetica 18 F
GS
[1 0 0 1 0 0] CT
0 6.5 moveto 
1 -1 scale
(FRR) t 
GR
GR
GS
[0.60028 0 0 0.60028 0 -0.1181] CT
0.973 0.98 0.051 RC
N
655 92.209 M
655 76.404 L
705 76.404 L
705 92.209 L
cp
f
GR
GS
[0.60028 0 0 0.60028 0 -0.1181] CT
10.0 ML
0.833 LW
N
655 92.209 M
655 76.404 L
705 76.404 L
705 92.209 L
cp
S
GR
GS
[0.60028 0 0 0.60028 0 -0.1181] CT
0.149 GC
10.0 ML
0.833 LW
N
645 98 M
645 49 L
752 49 L
752 98 L
cp
S
GR
%%Trailer
%%Pages: 1
%%EOF
