%!PS-Adobe-3.0 EPSF-3.0
%%Creator: (MATLAB, The Mathworks, Inc. Version 8.6.0.267246 \(R2015b\). Operating System: Windows 8)
%%Title: D:/paper/Fig/frequency_band.eps
%%CreationDate: 2019-05-16T01:38:51
%%Pages: (atend)
%%BoundingBox: 0 0 420 315
%%LanguageLevel: 2
%%EndComments
%%BeginProlog
%%BeginResource: procset (Apache XML Graphics Std ProcSet) 1.2 0
%%Version: 1.2 0
%%Copyright: (Copyright 2001-2003,2010 The Apache Software Foundation. License terms: http://www.apache.org/licenses/LICENSE-2.0)
/bd{bind def}bind def
/ld{load def}bd
/GR/grestore ld
/M/moveto ld
/LJ/setlinejoin ld
/C/curveto ld
/f/fill ld
/LW/setlinewidth ld
/GC/setgray ld
/t/show ld
/N/newpath ld
/CT/concat ld
/cp/closepath ld
/S/stroke ld
/L/lineto ld
/CC/setcmykcolor ld
/A/ashow ld
/GS/gsave ld
/RC/setrgbcolor ld
/RM/rmoveto ld
/ML/setmiterlimit ld
/re {4 2 roll M
1 index 0 rlineto
0 exch rlineto
neg 0 rlineto
cp } bd
/_ctm matrix def
/_tm matrix def
/BT { _ctm currentmatrix pop matrix _tm copy pop 0 0 moveto } bd
/ET { _ctm setmatrix } bd
/iTm { _ctm setmatrix _tm concat } bd
/Tm { _tm astore pop iTm 0 0 moveto } bd
/ux 0.0 def
/uy 0.0 def
/F {
  /Tp exch def
  /Tf exch def
  Tf findfont Tp scalefont setfont
  /cf Tf def  /cs Tp def
} bd
/ULS {currentpoint /uy exch def /ux exch def} bd
/ULE {
  /Tcx currentpoint pop def
  gsave
  newpath
  cf findfont cs scalefont dup
  /FontMatrix get 0 get /Ts exch def /FontInfo get dup
  /UnderlinePosition get Ts mul /To exch def
  /UnderlineThickness get Ts mul /Tt exch def
  ux uy To add moveto  Tcx uy To add lineto
  Tt setlinewidth stroke
  grestore
} bd
/OLE {
  /Tcx currentpoint pop def
  gsave
  newpath
  cf findfont cs scalefont dup
  /FontMatrix get 0 get /Ts exch def /FontInfo get dup
  /UnderlinePosition get Ts mul /To exch def
  /UnderlineThickness get Ts mul /Tt exch def
  ux uy To add cs add moveto Tcx uy To add cs add lineto
  Tt setlinewidth stroke
  grestore
} bd
/SOE {
  /Tcx currentpoint pop def
  gsave
  newpath
  cf findfont cs scalefont dup
  /FontMatrix get 0 get /Ts exch def /FontInfo get dup
  /UnderlinePosition get Ts mul /To exch def
  /UnderlineThickness get Ts mul /Tt exch def
  ux uy To add cs 10 mul 26 idiv add moveto Tcx uy To add cs 10 mul 26 idiv add lineto
  Tt setlinewidth stroke
  grestore
} bd
/QT {
/Y22 exch store
/X22 exch store
/Y21 exch store
/X21 exch store
currentpoint
/Y21 load 2 mul add 3 div exch
/X21 load 2 mul add 3 div exch
/X21 load 2 mul /X22 load add 3 div
/Y21 load 2 mul /Y22 load add 3 div
/X22 load /Y22 load curveto
} bd
/SSPD {
dup length /d exch dict def
{
/v exch def
/k exch def
currentpagedevice k known {
/cpdv currentpagedevice k get def
v cpdv ne {
/upd false def
/nullv v type /nulltype eq def
/nullcpdv cpdv type /nulltype eq def
nullv nullcpdv or
{
/upd true def
} {
/sametype v type cpdv type eq def
sametype {
v type /arraytype eq {
/vlen v length def
/cpdvlen cpdv length def
vlen cpdvlen eq {
0 1 vlen 1 sub {
/i exch def
/obj v i get def
/cpdobj cpdv i get def
obj cpdobj ne {
/upd true def
exit
} if
} for
} {
/upd true def
} ifelse
} {
v type /dicttype eq {
v {
/dv exch def
/dk exch def
/cpddv cpdv dk get def
dv cpddv ne {
/upd true def
exit
} if
} forall
} {
/upd true def
} ifelse
} ifelse
} if
} ifelse
upd true eq {
d k v put
} if
} if
} if
} forall
d length 0 gt {
d setpagedevice
} if
} bd
%%EndResource
%%BeginResource: procset (Apache XML Graphics EPS ProcSet) 1.0 0
%%Version: 1.0 0
%%Copyright: (Copyright 2002-2003 The Apache Software Foundation. License terms: http://www.apache.org/licenses/LICENSE-2.0)
/BeginEPSF { %def
/b4_Inc_state save def         % Save state for cleanup
/dict_count countdictstack def % Count objects on dict stack
/op_count count 1 sub def      % Count objects on operand stack
userdict begin                 % Push userdict on dict stack
/showpage { } def              % Redefine showpage, { } = null proc
0 setgray 0 setlinecap         % Prepare graphics state
1 setlinewidth 0 setlinejoin
10 setmiterlimit [ ] 0 setdash newpath
/languagelevel where           % If level not equal to 1 then
{pop languagelevel             % set strokeadjust and
1 ne                           % overprint to their defaults.
{false setstrokeadjust false setoverprint
} if
} if
} bd
/EndEPSF { %def
count op_count sub {pop} repeat            % Clean up stacks
countdictstack dict_count sub {end} repeat
b4_Inc_state restore
} bd
%%EndResource
%FOPBeginFontDict
%%IncludeResource: font Courier-Bold
%%IncludeResource: font Helvetica
%%IncludeResource: font Courier-BoldOblique
%%IncludeResource: font Courier-Oblique
%%IncludeResource: font Times-Roman
%%IncludeResource: font Helvetica-BoldOblique
%%IncludeResource: font Helvetica-Bold
%%IncludeResource: font Helvetica-Oblique
%%IncludeResource: font Times-BoldItalic
%%IncludeResource: font Courier
%%IncludeResource: font Times-Italic
%%IncludeResource: font Times-Bold
%%IncludeResource: font Symbol
%%IncludeResource: font ZapfDingbats
%FOPEndFontDict
%%BeginResource: encoding WinAnsiEncoding
/WinAnsiEncoding [
/.notdef /.notdef /.notdef /.notdef /.notdef
/.notdef /.notdef /.notdef /.notdef /.notdef
/.notdef /.notdef /.notdef /.notdef /.notdef
/.notdef /.notdef /.notdef /.notdef /.notdef
/.notdef /.notdef /.notdef /.notdef /.notdef
/.notdef /.notdef /.notdef /.notdef /.notdef
/.notdef /.notdef /space /exclam /quotedbl
/numbersign /dollar /percent /ampersand /quotesingle
/parenleft /parenright /asterisk /plus /comma
/hyphen /period /slash /zero /one
/two /three /four /five /six
/seven /eight /nine /colon /semicolon
/less /equal /greater /question /at
/A /B /C /D /E
/F /G /H /I /J
/K /L /M /N /O
/P /Q /R /S /T
/U /V /W /X /Y
/Z /bracketleft /backslash /bracketright /asciicircum
/underscore /quoteleft /a /b /c
/d /e /f /g /h
/i /j /k /l /m
/n /o /p /q /r
/s /t /u /v /w
/x /y /z /braceleft /bar
/braceright /asciitilde /bullet /Euro /bullet
/quotesinglbase /florin /quotedblbase /ellipsis /dagger
/daggerdbl /circumflex /perthousand /Scaron /guilsinglleft
/OE /bullet /Zcaron /bullet /bullet
/quoteleft /quoteright /quotedblleft /quotedblright /bullet
/endash /emdash /asciitilde /trademark /scaron
/guilsinglright /oe /bullet /zcaron /Ydieresis
/space /exclamdown /cent /sterling /currency
/yen /brokenbar /section /dieresis /copyright
/ordfeminine /guillemotleft /logicalnot /sfthyphen /registered
/macron /degree /plusminus /twosuperior /threesuperior
/acute /mu /paragraph /middot /cedilla
/onesuperior /ordmasculine /guillemotright /onequarter /onehalf
/threequarters /questiondown /Agrave /Aacute /Acircumflex
/Atilde /Adieresis /Aring /AE /Ccedilla
/Egrave /Eacute /Ecircumflex /Edieresis /Igrave
/Iacute /Icircumflex /Idieresis /Eth /Ntilde
/Ograve /Oacute /Ocircumflex /Otilde /Odieresis
/multiply /Oslash /Ugrave /Uacute /Ucircumflex
/Udieresis /Yacute /Thorn /germandbls /agrave
/aacute /acircumflex /atilde /adieresis /aring
/ae /ccedilla /egrave /eacute /ecircumflex
/edieresis /igrave /iacute /icircumflex /idieresis
/eth /ntilde /ograve /oacute /ocircumflex
/otilde /odieresis /divide /oslash /ugrave
/uacute /ucircumflex /udieresis /yacute /thorn
/ydieresis
] def
%%EndResource
%FOPBeginFontReencode
/Courier-Bold findfont
dup length dict begin
  {1 index /FID ne {def} {pop pop} ifelse} forall
  /Encoding WinAnsiEncoding def
  currentdict
end
/Courier-Bold exch definefont pop
/Helvetica findfont
dup length dict begin
  {1 index /FID ne {def} {pop pop} ifelse} forall
  /Encoding WinAnsiEncoding def
  currentdict
end
/Helvetica exch definefont pop
/Courier-BoldOblique findfont
dup length dict begin
  {1 index /FID ne {def} {pop pop} ifelse} forall
  /Encoding WinAnsiEncoding def
  currentdict
end
/Courier-BoldOblique exch definefont pop
/Courier-Oblique findfont
dup length dict begin
  {1 index /FID ne {def} {pop pop} ifelse} forall
  /Encoding WinAnsiEncoding def
  currentdict
end
/Courier-Oblique exch definefont pop
/Times-Roman findfont
dup length dict begin
  {1 index /FID ne {def} {pop pop} ifelse} forall
  /Encoding WinAnsiEncoding def
  currentdict
end
/Times-Roman exch definefont pop
/Helvetica-BoldOblique findfont
dup length dict begin
  {1 index /FID ne {def} {pop pop} ifelse} forall
  /Encoding WinAnsiEncoding def
  currentdict
end
/Helvetica-BoldOblique exch definefont pop
/Helvetica-Bold findfont
dup length dict begin
  {1 index /FID ne {def} {pop pop} ifelse} forall
  /Encoding WinAnsiEncoding def
  currentdict
end
/Helvetica-Bold exch definefont pop
/Helvetica-Oblique findfont
dup length dict begin
  {1 index /FID ne {def} {pop pop} ifelse} forall
  /Encoding WinAnsiEncoding def
  currentdict
end
/Helvetica-Oblique exch definefont pop
/Times-BoldItalic findfont
dup length dict begin
  {1 index /FID ne {def} {pop pop} ifelse} forall
  /Encoding WinAnsiEncoding def
  currentdict
end
/Times-BoldItalic exch definefont pop
/Courier findfont
dup length dict begin
  {1 index /FID ne {def} {pop pop} ifelse} forall
  /Encoding WinAnsiEncoding def
  currentdict
end
/Courier exch definefont pop
/Times-Italic findfont
dup length dict begin
  {1 index /FID ne {def} {pop pop} ifelse} forall
  /Encoding WinAnsiEncoding def
  currentdict
end
/Times-Italic exch definefont pop
/Times-Bold findfont
dup length dict begin
  {1 index /FID ne {def} {pop pop} ifelse} forall
  /Encoding WinAnsiEncoding def
  currentdict
end
/Times-Bold exch definefont pop
%FOPEndFontReencode
%%EndProlog
%%Page: 1 1
%%PageBoundingBox: 0 0 420 315
%%BeginPageSetup
[1 0 0 -1 0 315] CT
%%EndPageSetup
GS
[0.6 0 0 0.6 0 0] CT
1 GC
N
0 0 700 525 re
f
GR
GS
[0.6 0 0 0.6 0 0] CT
1 GC
N
0 0 700 525 re
f
GR
GS
[0.6 0 0 0.6 0 0] CT
1 GC
N
91.001 467 M
634.001 467 L
634.001 39 L
91.001 39 L
cp
f
GR
GS
[0.6 0 0 0.6 0 0] CT
0.149 GC
2 setlinecap
1 LJ
0.833 LW
N
91.001 467 M
634.001 467 L
S
GR
GS
[0.6 0 0 0.6 0 0] CT
0.149 GC
2 setlinecap
1 LJ
0.833 LW
N
91.001 39 M
634.001 39 L
S
GR
GS
[0.6 0 0 0.6 0 0] CT
0.149 GC
2 setlinecap
1 LJ
0.833 LW
N
171.518 467 M
171.518 461.57 L
S
GR
GS
[0.6 0 0 0.6 0 0] CT
0.149 GC
2 setlinecap
1 LJ
0.833 LW
N
253.343 467 M
253.343 461.57 L
S
GR
GS
[0.6 0 0 0.6 0 0] CT
0.149 GC
2 setlinecap
1 LJ
0.833 LW
N
335.171 467 M
335.171 461.57 L
S
GR
GS
[0.6 0 0 0.6 0 0] CT
0.149 GC
2 setlinecap
1 LJ
0.833 LW
N
416.996 467 M
416.996 461.57 L
S
GR
GS
[0.6 0 0 0.6 0 0] CT
0.149 GC
2 setlinecap
1 LJ
0.833 LW
N
498.822 467 M
498.822 461.57 L
S
GR
GS
[0.6 0 0 0.6 0 0] CT
0.149 GC
2 setlinecap
1 LJ
0.833 LW
N
580.65 467 M
580.65 461.57 L
S
GR
GS
[0.6 0 0 0.6 0 0] CT
0.149 GC
2 setlinecap
1 LJ
0.833 LW
N
171.518 39 M
171.518 44.43 L
S
GR
GS
[0.6 0 0 0.6 0 0] CT
0.149 GC
2 setlinecap
1 LJ
0.833 LW
N
253.343 39 M
253.343 44.43 L
S
GR
GS
[0.6 0 0 0.6 0 0] CT
0.149 GC
2 setlinecap
1 LJ
0.833 LW
N
335.171 39 M
335.171 44.43 L
S
GR
GS
[0.6 0 0 0.6 0 0] CT
0.149 GC
2 setlinecap
1 LJ
0.833 LW
N
416.996 39 M
416.996 44.43 L
S
GR
GS
[0.6 0 0 0.6 0 0] CT
0.149 GC
2 setlinecap
1 LJ
0.833 LW
N
498.822 39 M
498.822 44.43 L
S
GR
GS
[0.6 0 0 0.6 0 0] CT
0.149 GC
2 setlinecap
1 LJ
0.833 LW
N
580.65 39 M
580.65 44.43 L
S
GR
GS
[0.6 0 0 0.6 102.91068 284.60001] CT
0.149 GC
/Helvetica 20 F
GS
[1 0 0 1 0 0] CT
-19.5 19 moveto 
1 -1 scale
(20.1) t 
GR
GR
GS
[0.6 0 0 0.6 152.00577 284.60001] CT
0.149 GC
/Helvetica 20 F
GS
[1 0 0 1 0 0] CT
-25.5 19 moveto 
1 -1 scale
(20.15) t 
GR
GR
GS
[0.6 0 0 0.6 201.10274 284.60001] CT
0.149 GC
/Helvetica 20 F
GS
[1 0 0 1 0 0] CT
-19.5 19 moveto 
1 -1 scale
(20.2) t 
GR
GR
GS
[0.6 0 0 0.6 250.19782 284.60001] CT
0.149 GC
/Helvetica 20 F
GS
[1 0 0 1 0 0] CT
-25.5 19 moveto 
1 -1 scale
(20.25) t 
GR
GR
GS
[0.6 0 0 0.6 299.29292 284.60001] CT
0.149 GC
/Helvetica 20 F
GS
[1 0 0 1 0 0] CT
-19.5 19 moveto 
1 -1 scale
(20.3) t 
GR
GR
GS
[0.6 0 0 0.6 348.38987 284.60001] CT
0.149 GC
/Helvetica 20 F
GS
[1 0 0 1 0 0] CT
-25.5 19 moveto 
1 -1 scale
(20.35) t 
GR
GR
GS
[0.6 0 0 0.6 217.50148 299.4] CT
0.149 GC
/Helvetica 22 F
GS
[1 0 0 1 0 0] CT
-78.5 21 moveto 
1 -1 scale
(Frequency\(kHz\)) t 
GR
GR
GS
[0.6 0 0 0.6 0 0] CT
0.149 GC
2 setlinecap
1 LJ
0.833 LW
N
91.001 467 M
91.001 39 L
S
GR
GS
[0.6 0 0 0.6 0 0] CT
0.149 GC
2 setlinecap
1 LJ
0.833 LW
N
634.001 467 M
634.001 39 L
S
GR
GS
[0.6 0 0 0.6 0 0] CT
0.149 GC
2 setlinecap
1 LJ
0.833 LW
N
91.001 467 M
96.432 467 L
S
GR
GS
[0.6 0 0 0.6 0 0] CT
0.149 GC
2 setlinecap
1 LJ
0.833 LW
N
91.001 395.667 M
96.432 395.667 L
S
GR
GS
[0.6 0 0 0.6 0 0] CT
0.149 GC
2 setlinecap
1 LJ
0.833 LW
N
91.001 324.333 M
96.432 324.333 L
S
GR
GS
[0.6 0 0 0.6 0 0] CT
0.149 GC
2 setlinecap
1 LJ
0.833 LW
N
91.001 253 M
96.432 253 L
S
GR
GS
[0.6 0 0 0.6 0 0] CT
0.149 GC
2 setlinecap
1 LJ
0.833 LW
N
91.001 181.667 M
96.432 181.667 L
S
GR
GS
[0.6 0 0 0.6 0 0] CT
0.149 GC
2 setlinecap
1 LJ
0.833 LW
N
91.001 110.333 M
96.432 110.333 L
S
GR
GS
[0.6 0 0 0.6 0 0] CT
0.149 GC
2 setlinecap
1 LJ
0.833 LW
N
91.001 39 M
96.432 39 L
S
GR
GS
[0.6 0 0 0.6 0 0] CT
0.149 GC
2 setlinecap
1 LJ
0.833 LW
N
634.001 467 M
628.57 467 L
S
GR
GS
[0.6 0 0 0.6 0 0] CT
0.149 GC
2 setlinecap
1 LJ
0.833 LW
N
634.001 395.667 M
628.57 395.667 L
S
GR
GS
[0.6 0 0 0.6 0 0] CT
0.149 GC
2 setlinecap
1 LJ
0.833 LW
N
634.001 324.333 M
628.57 324.333 L
S
GR
GS
[0.6 0 0 0.6 0 0] CT
0.149 GC
2 setlinecap
1 LJ
0.833 LW
N
634.001 253 M
628.57 253 L
S
GR
GS
[0.6 0 0 0.6 0 0] CT
0.149 GC
2 setlinecap
1 LJ
0.833 LW
N
634.001 181.667 M
628.57 181.667 L
S
GR
GS
[0.6 0 0 0.6 0 0] CT
0.149 GC
2 setlinecap
1 LJ
0.833 LW
N
634.001 110.333 M
628.57 110.333 L
S
GR
GS
[0.6 0 0 0.6 0 0] CT
0.149 GC
2 setlinecap
1 LJ
0.833 LW
N
634.001 39 M
628.57 39 L
S
GR
GS
[0.6 0 0 0.6 50.20097 280.2] CT
0.149 GC
/Helvetica 20 F
GS
[1 0 0 1 0 0] CT
-12 7.5 moveto 
1 -1 scale
(0) t 
GR
GR
GS
[0.6 0 0 0.6 50.20097 237.39999] CT
0.149 GC
/Helvetica 20 F
GS
[1 0 0 1 0 0] CT
-28 7.5 moveto 
1 -1 scale
(0.5) t 
GR
GR
GS
[0.6 0 0 0.6 50.20097 194.60001] CT
0.149 GC
/Helvetica 20 F
GS
[1 0 0 1 0 0] CT
-12 7.5 moveto 
1 -1 scale
(1) t 
GR
GR
GS
[0.6 0 0 0.6 50.20097 151.8] CT
0.149 GC
/Helvetica 20 F
GS
[1 0 0 1 0 0] CT
-28 7.5 moveto 
1 -1 scale
(1.5) t 
GR
GR
GS
[0.6 0 0 0.6 50.20097 109] CT
0.149 GC
/Helvetica 20 F
GS
[1 0 0 1 0 0] CT
-12 7.5 moveto 
1 -1 scale
(2) t 
GR
GR
GS
[0.6 0 0 0.6 50.20097 66.2] CT
0.149 GC
/Helvetica 20 F
GS
[1 0 0 1 0 0] CT
-28 7.5 moveto 
1 -1 scale
(2.5) t 
GR
GR
GS
[0.6 0 0 0.6 50.20097 23.4] CT
0.149 GC
/Helvetica 20 F
GS
[1 0 0 1 0 0] CT
-12 7.5 moveto 
1 -1 scale
(3) t 
GR
GR
GS
[0 -0.6 0.6 0 30.39925 151.79988] CT
0.149 GC
/Helvetica 22 F
GS
[1 0 0 1 0 0] CT
-111 -5 moveto 
1 -1 scale
(Normalized Power\(dB\)) t 
GR
GR
GS
[0.6 0 0 0.6 0 0] CT
1 LJ
0.833 LW
N
91.001 462.435 M
94.437 422.463 L
97.874 409.688 L
101.311 381.152 L
104.747 361.743 L
108.184 363.093 L
111.621 300.155 L
115.057 248.957 L
118.494 268.649 L
121.931 274.467 L
125.367 245.436 L
128.804 261.101 L
132.241 315.462 L
135.678 364.675 L
139.114 337.958 L
142.551 293.151 L
145.988 259.361 L
149.424 231.798 L
152.861 169.046 L
156.298 82.903 L
159.734 70.214 L
163.171 141.33 L
166.608 226.108 L
170.044 227.205 L
173.481 204.368 L
176.918 259.617 L
180.355 266.436 L
183.791 205.299 L
187.228 204.55 L
190.665 171.087 L
194.101 104.984 L
197.538 92.196 L
200.975 143.891 L
204.411 254.738 L
207.848 300.108 L
211.285 254.566 L
214.722 232.222 L
218.158 260.953 L
221.595 249.684 L
225.032 282.175 L
228.468 331.544 L
231.905 301.958 L
235.342 312.67 L
238.778 325.802 L
242.215 312.805 L
245.652 338.153 L
249.088 322.44 L
252.525 311.882 L
255.962 342.661 L
259.399 387.403 L
S
GR
GS
[0.6 0 0 0.6 0 0] CT
1 LJ
0.833 LW
N
255.962 342.661 M
259.399 387.403 L
262.835 364.021 L
266.272 313.897 L
269.709 313.135 L
273.145 359.611 L
276.582 397.771 L
280.019 369.313 L
283.455 327.042 L
286.892 329.802 L
290.329 348.662 L
293.765 347.797 L
297.202 356.355 L
300.639 377.711 L
304.076 379.294 L
307.512 381.964 L
310.949 398.734 L
314.386 396.761 L
317.822 365.039 L
321.259 366.971 L
324.696 394.07 L
328.132 378.029 L
331.569 364.931 L
335.006 386.575 L
338.442 409.79 L
341.879 408.836 L
345.316 406.685 L
348.753 407.692 L
352.189 391.729 L
355.626 393.574 L
359.063 409.491 L
362.499 402.682 L
365.936 413.486 L
369.373 442.553 L
372.809 457.593 L
376.246 453.969 L
379.683 440.759 L
383.12 436.939 L
386.556 431.035 L
389.993 413.834 L
393.43 401.713 L
396.866 372.773 L
400.303 365.743 L
403.74 401.151 L
407.176 440.532 L
410.613 441.75 L
414.05 434.951 L
417.486 440.574 L
420.923 446.003 L
424.36 443.383 L
427.797 433.797 L
431.233 422.236 L
S
GR
GS
[0.6 0 0 0.6 0 0] CT
1 LJ
0.833 LW
N
427.797 433.797 M
431.233 422.236 L
434.67 414.442 L
438.107 411.78 L
441.543 424.513 L
444.98 431.44 L
448.417 419.033 L
451.853 410.467 L
455.29 414.453 L
458.727 431.331 L
462.163 435.264 L
465.6 426.437 L
469.037 436.936 L
472.474 453.121 L
475.91 451.455 L
479.347 442.501 L
482.784 435.993 L
486.22 436.194 L
489.657 424.835 L
493.094 408.181 L
496.53 409.469 L
499.967 421.422 L
503.404 422.12 L
506.84 424.836 L
510.277 433.873 L
513.714 442.674 L
517.151 445.265 L
520.587 447.039 L
524.024 448.355 L
527.461 445.33 L
530.897 441.116 L
534.334 442.864 L
537.771 445.535 L
541.207 446.004 L
544.644 449.384 L
548.081 452.799 L
551.518 452.268 L
554.954 453.167 L
558.391 452.617 L
561.828 448.41 L
565.264 449.326 L
568.701 450.121 L
572.141 443.299 L
575.578 442.37 L
579.014 447.604 L
582.451 448.921 L
585.888 451.126 L
589.324 456.542 L
592.761 456.104 L
596.198 455.188 L
599.634 460.351 L
603.071 460.813 L
S
GR
GS
[0.6 0 0 0.6 0 0] CT
1 LJ
0.833 LW
N
599.634 460.351 M
603.071 460.813 L
606.508 460.363 L
609.944 458.889 L
613.381 456.574 L
616.818 455.118 L
620.255 455.597 L
623.691 458.45 L
627.128 456.03 L
630.565 453.294 L
634.001 458.906 L
S
GR
GS
[0.6 0 0 0.6 0 0] CT
0 0 1 RC
[10 6] 0 setdash
2 LJ
0.833 LW
N
452.999 467 M
452.999 39 L
S
GR
GS
[0.6 0 0 0.6 0 0] CT
0 0 1 RC
[10 6] 0 setdash
2 LJ
0.833 LW
N
272 467 M
272 39 L
S
GR
%%Trailer
%%Pages: 1
%%EOF
