%!PS-Adobe-3.0 EPSF-3.0
%%Creator: (MATLAB, The Mathworks, Inc. Version 8.6.0.267246 \(R2015b\). Operating System: Windows 8)
%%Title: D:/paper/Fig/sample_size.eps
%%CreationDate: 2019-05-15T14:58:36
%%Pages: (atend)
%%BoundingBox: 0 0 510 255
%%LanguageLevel: 2
%%EndComments
%%BeginProlog
%%BeginResource: procset (Apache XML Graphics Std ProcSet) 1.2 0
%%Version: 1.2 0
%%Copyright: (Copyright 2001-2003,2010 The Apache Software Foundation. License terms: http://www.apache.org/licenses/LICENSE-2.0)
/bd{bind def}bind def
/ld{load def}bd
/GR/grestore ld
/M/moveto ld
/LJ/setlinejoin ld
/C/curveto ld
/f/fill ld
/LW/setlinewidth ld
/GC/setgray ld
/t/show ld
/N/newpath ld
/CT/concat ld
/cp/closepath ld
/S/stroke ld
/L/lineto ld
/CC/setcmykcolor ld
/A/ashow ld
/GS/gsave ld
/RC/setrgbcolor ld
/RM/rmoveto ld
/ML/setmiterlimit ld
/re {4 2 roll M
1 index 0 rlineto
0 exch rlineto
neg 0 rlineto
cp } bd
/_ctm matrix def
/_tm matrix def
/BT { _ctm currentmatrix pop matrix _tm copy pop 0 0 moveto } bd
/ET { _ctm setmatrix } bd
/iTm { _ctm setmatrix _tm concat } bd
/Tm { _tm astore pop iTm 0 0 moveto } bd
/ux 0.0 def
/uy 0.0 def
/F {
  /Tp exch def
  /Tf exch def
  Tf findfont Tp scalefont setfont
  /cf Tf def  /cs Tp def
} bd
/ULS {currentpoint /uy exch def /ux exch def} bd
/ULE {
  /Tcx currentpoint pop def
  gsave
  newpath
  cf findfont cs scalefont dup
  /FontMatrix get 0 get /Ts exch def /FontInfo get dup
  /UnderlinePosition get Ts mul /To exch def
  /UnderlineThickness get Ts mul /Tt exch def
  ux uy To add moveto  Tcx uy To add lineto
  Tt setlinewidth stroke
  grestore
} bd
/OLE {
  /Tcx currentpoint pop def
  gsave
  newpath
  cf findfont cs scalefont dup
  /FontMatrix get 0 get /Ts exch def /FontInfo get dup
  /UnderlinePosition get Ts mul /To exch def
  /UnderlineThickness get Ts mul /Tt exch def
  ux uy To add cs add moveto Tcx uy To add cs add lineto
  Tt setlinewidth stroke
  grestore
} bd
/SOE {
  /Tcx currentpoint pop def
  gsave
  newpath
  cf findfont cs scalefont dup
  /FontMatrix get 0 get /Ts exch def /FontInfo get dup
  /UnderlinePosition get Ts mul /To exch def
  /UnderlineThickness get Ts mul /Tt exch def
  ux uy To add cs 10 mul 26 idiv add moveto Tcx uy To add cs 10 mul 26 idiv add lineto
  Tt setlinewidth stroke
  grestore
} bd
/QT {
/Y22 exch store
/X22 exch store
/Y21 exch store
/X21 exch store
currentpoint
/Y21 load 2 mul add 3 div exch
/X21 load 2 mul add 3 div exch
/X21 load 2 mul /X22 load add 3 div
/Y21 load 2 mul /Y22 load add 3 div
/X22 load /Y22 load curveto
} bd
/SSPD {
dup length /d exch dict def
{
/v exch def
/k exch def
currentpagedevice k known {
/cpdv currentpagedevice k get def
v cpdv ne {
/upd false def
/nullv v type /nulltype eq def
/nullcpdv cpdv type /nulltype eq def
nullv nullcpdv or
{
/upd true def
} {
/sametype v type cpdv type eq def
sametype {
v type /arraytype eq {
/vlen v length def
/cpdvlen cpdv length def
vlen cpdvlen eq {
0 1 vlen 1 sub {
/i exch def
/obj v i get def
/cpdobj cpdv i get def
obj cpdobj ne {
/upd true def
exit
} if
} for
} {
/upd true def
} ifelse
} {
v type /dicttype eq {
v {
/dv exch def
/dk exch def
/cpddv cpdv dk get def
dv cpddv ne {
/upd true def
exit
} if
} forall
} {
/upd true def
} ifelse
} ifelse
} if
} ifelse
upd true eq {
d k v put
} if
} if
} if
} forall
d length 0 gt {
d setpagedevice
} if
} bd
%%EndResource
%%BeginResource: procset (Apache XML Graphics EPS ProcSet) 1.0 0
%%Version: 1.0 0
%%Copyright: (Copyright 2002-2003 The Apache Software Foundation. License terms: http://www.apache.org/licenses/LICENSE-2.0)
/BeginEPSF { %def
/b4_Inc_state save def         % Save state for cleanup
/dict_count countdictstack def % Count objects on dict stack
/op_count count 1 sub def      % Count objects on operand stack
userdict begin                 % Push userdict on dict stack
/showpage { } def              % Redefine showpage, { } = null proc
0 setgray 0 setlinecap         % Prepare graphics state
1 setlinewidth 0 setlinejoin
10 setmiterlimit [ ] 0 setdash newpath
/languagelevel where           % If level not equal to 1 then
{pop languagelevel             % set strokeadjust and
1 ne                           % overprint to their defaults.
{false setstrokeadjust false setoverprint
} if
} if
} bd
/EndEPSF { %def
count op_count sub {pop} repeat            % Clean up stacks
countdictstack dict_count sub {end} repeat
b4_Inc_state restore
} bd
%%EndResource
%FOPBeginFontDict
%%IncludeResource: font Courier-Bold
%%IncludeResource: font Helvetica
%%IncludeResource: font Courier-BoldOblique
%%IncludeResource: font Courier-Oblique
%%IncludeResource: font Times-Roman
%%IncludeResource: font Helvetica-BoldOblique
%%IncludeResource: font Helvetica-Bold
%%IncludeResource: font Helvetica-Oblique
%%IncludeResource: font Times-BoldItalic
%%IncludeResource: font Courier
%%IncludeResource: font Times-Italic
%%IncludeResource: font Times-Bold
%%IncludeResource: font Symbol
%%IncludeResource: font ZapfDingbats
%FOPEndFontDict
%%BeginResource: encoding WinAnsiEncoding
/WinAnsiEncoding [
/.notdef /.notdef /.notdef /.notdef /.notdef
/.notdef /.notdef /.notdef /.notdef /.notdef
/.notdef /.notdef /.notdef /.notdef /.notdef
/.notdef /.notdef /.notdef /.notdef /.notdef
/.notdef /.notdef /.notdef /.notdef /.notdef
/.notdef /.notdef /.notdef /.notdef /.notdef
/.notdef /.notdef /space /exclam /quotedbl
/numbersign /dollar /percent /ampersand /quotesingle
/parenleft /parenright /asterisk /plus /comma
/hyphen /period /slash /zero /one
/two /three /four /five /six
/seven /eight /nine /colon /semicolon
/less /equal /greater /question /at
/A /B /C /D /E
/F /G /H /I /J
/K /L /M /N /O
/P /Q /R /S /T
/U /V /W /X /Y
/Z /bracketleft /backslash /bracketright /asciicircum
/underscore /quoteleft /a /b /c
/d /e /f /g /h
/i /j /k /l /m
/n /o /p /q /r
/s /t /u /v /w
/x /y /z /braceleft /bar
/braceright /asciitilde /bullet /Euro /bullet
/quotesinglbase /florin /quotedblbase /ellipsis /dagger
/daggerdbl /circumflex /perthousand /Scaron /guilsinglleft
/OE /bullet /Zcaron /bullet /bullet
/quoteleft /quoteright /quotedblleft /quotedblright /bullet
/endash /emdash /asciitilde /trademark /scaron
/guilsinglright /oe /bullet /zcaron /Ydieresis
/space /exclamdown /cent /sterling /currency
/yen /brokenbar /section /dieresis /copyright
/ordfeminine /guillemotleft /logicalnot /sfthyphen /registered
/macron /degree /plusminus /twosuperior /threesuperior
/acute /mu /paragraph /middot /cedilla
/onesuperior /ordmasculine /guillemotright /onequarter /onehalf
/threequarters /questiondown /Agrave /Aacute /Acircumflex
/Atilde /Adieresis /Aring /AE /Ccedilla
/Egrave /Eacute /Ecircumflex /Edieresis /Igrave
/Iacute /Icircumflex /Idieresis /Eth /Ntilde
/Ograve /Oacute /Ocircumflex /Otilde /Odieresis
/multiply /Oslash /Ugrave /Uacute /Ucircumflex
/Udieresis /Yacute /Thorn /germandbls /agrave
/aacute /acircumflex /atilde /adieresis /aring
/ae /ccedilla /egrave /eacute /ecircumflex
/edieresis /igrave /iacute /icircumflex /idieresis
/eth /ntilde /ograve /oacute /ocircumflex
/otilde /odieresis /divide /oslash /ugrave
/uacute /ucircumflex /udieresis /yacute /thorn
/ydieresis
] def
%%EndResource
%FOPBeginFontReencode
/Courier-Bold findfont
dup length dict begin
  {1 index /FID ne {def} {pop pop} ifelse} forall
  /Encoding WinAnsiEncoding def
  currentdict
end
/Courier-Bold exch definefont pop
/Helvetica findfont
dup length dict begin
  {1 index /FID ne {def} {pop pop} ifelse} forall
  /Encoding WinAnsiEncoding def
  currentdict
end
/Helvetica exch definefont pop
/Courier-BoldOblique findfont
dup length dict begin
  {1 index /FID ne {def} {pop pop} ifelse} forall
  /Encoding WinAnsiEncoding def
  currentdict
end
/Courier-BoldOblique exch definefont pop
/Courier-Oblique findfont
dup length dict begin
  {1 index /FID ne {def} {pop pop} ifelse} forall
  /Encoding WinAnsiEncoding def
  currentdict
end
/Courier-Oblique exch definefont pop
/Times-Roman findfont
dup length dict begin
  {1 index /FID ne {def} {pop pop} ifelse} forall
  /Encoding WinAnsiEncoding def
  currentdict
end
/Times-Roman exch definefont pop
/Helvetica-BoldOblique findfont
dup length dict begin
  {1 index /FID ne {def} {pop pop} ifelse} forall
  /Encoding WinAnsiEncoding def
  currentdict
end
/Helvetica-BoldOblique exch definefont pop
/Helvetica-Bold findfont
dup length dict begin
  {1 index /FID ne {def} {pop pop} ifelse} forall
  /Encoding WinAnsiEncoding def
  currentdict
end
/Helvetica-Bold exch definefont pop
/Helvetica-Oblique findfont
dup length dict begin
  {1 index /FID ne {def} {pop pop} ifelse} forall
  /Encoding WinAnsiEncoding def
  currentdict
end
/Helvetica-Oblique exch definefont pop
/Times-BoldItalic findfont
dup length dict begin
  {1 index /FID ne {def} {pop pop} ifelse} forall
  /Encoding WinAnsiEncoding def
  currentdict
end
/Times-BoldItalic exch definefont pop
/Courier findfont
dup length dict begin
  {1 index /FID ne {def} {pop pop} ifelse} forall
  /Encoding WinAnsiEncoding def
  currentdict
end
/Courier exch definefont pop
/Times-Italic findfont
dup length dict begin
  {1 index /FID ne {def} {pop pop} ifelse} forall
  /Encoding WinAnsiEncoding def
  currentdict
end
/Times-Italic exch definefont pop
/Times-Bold findfont
dup length dict begin
  {1 index /FID ne {def} {pop pop} ifelse} forall
  /Encoding WinAnsiEncoding def
  currentdict
end
/Times-Bold exch definefont pop
%FOPEndFontReencode
%%EndProlog
%%Page: 1 1
%%PageBoundingBox: 0 0 510 255
%%BeginPageSetup
[1 0 0 -1 0 255] CT
%%EndPageSetup
GS
[0.60028 0 0 0.60028 0 -0.1181] CT
1 GC
N
0 0 850 425 re
f
GR
GS
[0.60028 0 0 0.60028 0 -0.1181] CT
1 GC
N
0 0 850 425 re
f
GR
GS
[0.60028 0 0 0.60028 0 -0.1181] CT
1 GC
N
110 367 M
769 367 L
769 32 L
110 32 L
cp
f
GR
GS
[0.60028 0 0 0.60028 0 -0.1181] CT
0.149 GC
2 setlinecap
1 LJ
0.833 LW
N
110 367 M
769 367 L
S
GR
GS
[0.60028 0 0 0.60028 0 -0.1181] CT
0.149 GC
2 setlinecap
1 LJ
0.833 LW
N
110 32 M
769 32 L
S
GR
GS
[0.60028 0 0 0.60028 0 -0.1181] CT
0.149 GC
2 setlinecap
1 LJ
0.833 LW
N
192.375 367 M
192.375 360.42 L
S
GR
GS
[0.60028 0 0 0.60028 0 -0.1181] CT
0.149 GC
2 setlinecap
1 LJ
0.833 LW
N
274.75 367 M
274.75 360.42 L
S
GR
GS
[0.60028 0 0 0.60028 0 -0.1181] CT
0.149 GC
2 setlinecap
1 LJ
0.833 LW
N
357.125 367 M
357.125 360.42 L
S
GR
GS
[0.60028 0 0 0.60028 0 -0.1181] CT
0.149 GC
2 setlinecap
1 LJ
0.833 LW
N
439.5 367 M
439.5 360.42 L
S
GR
GS
[0.60028 0 0 0.60028 0 -0.1181] CT
0.149 GC
2 setlinecap
1 LJ
0.833 LW
N
521.875 367 M
521.875 360.42 L
S
GR
GS
[0.60028 0 0 0.60028 0 -0.1181] CT
0.149 GC
2 setlinecap
1 LJ
0.833 LW
N
604.25 367 M
604.25 360.42 L
S
GR
GS
[0.60028 0 0 0.60028 0 -0.1181] CT
0.149 GC
2 setlinecap
1 LJ
0.833 LW
N
686.625 367 M
686.625 360.42 L
S
GR
GS
[0.60028 0 0 0.60028 0 -0.1181] CT
0.149 GC
2 setlinecap
1 LJ
0.833 LW
N
192.375 32 M
192.375 38.58 L
S
GR
GS
[0.60028 0 0 0.60028 0 -0.1181] CT
0.149 GC
2 setlinecap
1 LJ
0.833 LW
N
274.75 32 M
274.75 38.58 L
S
GR
GS
[0.60028 0 0 0.60028 0 -0.1181] CT
0.149 GC
2 setlinecap
1 LJ
0.833 LW
N
357.125 32 M
357.125 38.58 L
S
GR
GS
[0.60028 0 0 0.60028 0 -0.1181] CT
0.149 GC
2 setlinecap
1 LJ
0.833 LW
N
439.5 32 M
439.5 38.58 L
S
GR
GS
[0.60028 0 0 0.60028 0 -0.1181] CT
0.149 GC
2 setlinecap
1 LJ
0.833 LW
N
521.875 32 M
521.875 38.58 L
S
GR
GS
[0.60028 0 0 0.60028 0 -0.1181] CT
0.149 GC
2 setlinecap
1 LJ
0.833 LW
N
604.25 32 M
604.25 38.58 L
S
GR
GS
[0.60028 0 0 0.60028 0 -0.1181] CT
0.149 GC
2 setlinecap
1 LJ
0.833 LW
N
686.625 32 M
686.625 38.58 L
S
GR
GS
[0.60028 0 0 0.60028 115.47846 224.61562] CT
0.149 GC
/Helvetica 20 F
GS
[1 0 0 1 0 0] CT
-11.5 19 moveto 
1 -1 scale
(10) t 
GR
GR
GS
[0.60028 0 0 0.60028 164.92635 224.61562] CT
0.149 GC
/Helvetica 20 F
GS
[1 0 0 1 0 0] CT
-11.5 19 moveto 
1 -1 scale
(20) t 
GR
GR
GS
[0.60028 0 0 0.60028 214.37424 224.61562] CT
0.149 GC
/Helvetica 20 F
GS
[1 0 0 1 0 0] CT
-11.5 19 moveto 
1 -1 scale
(30) t 
GR
GR
GS
[0.60028 0 0 0.60028 263.82213 224.61562] CT
0.149 GC
/Helvetica 20 F
GS
[1 0 0 1 0 0] CT
-11.5 19 moveto 
1 -1 scale
(40) t 
GR
GR
GS
[0.60028 0 0 0.60028 313.27002 224.61562] CT
0.149 GC
/Helvetica 20 F
GS
[1 0 0 1 0 0] CT
-11.5 19 moveto 
1 -1 scale
(50) t 
GR
GR
GS
[0.60028 0 0 0.60028 362.71791 224.61562] CT
0.149 GC
/Helvetica 20 F
GS
[1 0 0 1 0 0] CT
-11.5 19 moveto 
1 -1 scale
(60) t 
GR
GR
GS
[0.60028 0 0 0.60028 412.16581 224.61562] CT
0.149 GC
/Helvetica 20 F
GS
[1 0 0 1 0 0] CT
-11.5 19 moveto 
1 -1 scale
(70) t 
GR
GR
GS
[0.60028 0 0 0.60028 263.82232 239.42249] CT
0.149 GC
/Helvetica 22 F
GS
[1 0 0 1 0 0] CT
-87 21 moveto 
1 -1 scale
(Training data size) t 
GR
GR
GS
[0.60028 0 0 0.60028 0 -0.1181] CT
0.149 GC
2 setlinecap
1 LJ
0.833 LW
N
110 367 M
110 32 L
S
GR
GS
[0.60028 0 0 0.60028 0 -0.1181] CT
0.149 GC
2 setlinecap
1 LJ
0.833 LW
N
769 367 M
769 32 L
S
GR
GS
[0.60028 0 0 0.60028 0 -0.1181] CT
0.149 GC
2 setlinecap
1 LJ
0.833 LW
N
110 367 M
116.58 367 L
S
GR
GS
[0.60028 0 0 0.60028 0 -0.1181] CT
0.149 GC
2 setlinecap
1 LJ
0.833 LW
N
110 300 M
116.58 300 L
S
GR
GS
[0.60028 0 0 0.60028 0 -0.1181] CT
0.149 GC
2 setlinecap
1 LJ
0.833 LW
N
110 233 M
116.58 233 L
S
GR
GS
[0.60028 0 0 0.60028 0 -0.1181] CT
0.149 GC
2 setlinecap
1 LJ
0.833 LW
N
110 166 M
116.58 166 L
S
GR
GS
[0.60028 0 0 0.60028 0 -0.1181] CT
0.149 GC
2 setlinecap
1 LJ
0.833 LW
N
110 99 M
116.58 99 L
S
GR
GS
[0.60028 0 0 0.60028 0 -0.1181] CT
0.149 GC
2 setlinecap
1 LJ
0.833 LW
N
110 32 M
116.58 32 L
S
GR
GS
[0.60028 0 0 0.60028 0 -0.1181] CT
0.149 GC
2 setlinecap
1 LJ
0.833 LW
N
769 367 M
762.42 367 L
S
GR
GS
[0.60028 0 0 0.60028 0 -0.1181] CT
0.149 GC
2 setlinecap
1 LJ
0.833 LW
N
769 300 M
762.42 300 L
S
GR
GS
[0.60028 0 0 0.60028 0 -0.1181] CT
0.149 GC
2 setlinecap
1 LJ
0.833 LW
N
769 233 M
762.42 233 L
S
GR
GS
[0.60028 0 0 0.60028 0 -0.1181] CT
0.149 GC
2 setlinecap
1 LJ
0.833 LW
N
769 166 M
762.42 166 L
S
GR
GS
[0.60028 0 0 0.60028 0 -0.1181] CT
0.149 GC
2 setlinecap
1 LJ
0.833 LW
N
769 99 M
762.42 99 L
S
GR
GS
[0.60028 0 0 0.60028 0 -0.1181] CT
0.149 GC
2 setlinecap
1 LJ
0.833 LW
N
769 32 M
762.42 32 L
S
GR
GS
[0.60028 0 0 0.60028 61.59882 220.18388] CT
0.149 GC
/Helvetica 20 F
GS
[1 0 0 1 0 0] CT
-12 7.5 moveto 
1 -1 scale
(0) t 
GR
GR
GS
[0.60028 0 0 0.60028 61.59882 179.96526] CT
0.149 GC
/Helvetica 20 F
GS
[1 0 0 1 0 0] CT
-41 7.5 moveto 
1 -1 scale
(20%) t 
GR
GR
GS
[0.60028 0 0 0.60028 61.59882 139.74665] CT
0.149 GC
/Helvetica 20 F
GS
[1 0 0 1 0 0] CT
-41 7.5 moveto 
1 -1 scale
(40%) t 
GR
GR
GS
[0.60028 0 0 0.60028 61.59882 99.52803] CT
0.149 GC
/Helvetica 20 F
GS
[1 0 0 1 0 0] CT
-41 7.5 moveto 
1 -1 scale
(60%) t 
GR
GR
GS
[0.60028 0 0 0.60028 61.59882 59.30941] CT
0.149 GC
/Helvetica 20 F
GS
[1 0 0 1 0 0] CT
-41 7.5 moveto 
1 -1 scale
(80%) t 
GR
GR
GS
[0.60028 0 0 0.60028 61.59882 19.09079] CT
0.149 GC
/Helvetica 20 F
GS
[1 0 0 1 0 0] CT
-52 7.5 moveto 
1 -1 scale
(100%) t 
GR
GR
GS
[0 -0.60028 0.60028 0 27.98326 119.63724] CT
0.149 GC
/Helvetica 22 F
GS
[1 0 0 1 0 0] CT
-62 -5 moveto 
1 -1 scale
(Accyracy\(%\)) t 
GR
GR
GS
[0.60028 0 0 0.60028 0 -0.1181] CT
0.149 GC
1 LJ
0.833 LW
N
110 367 M
769 367 L
S
GR
GS
[0.60028 0 0 0.60028 0 -0.1181] CT
0 0 1 RC
N
171.781 367 M
212.969 367 L
212.969 325.795 L
171.781 325.795 L
cp
f
GR
GS
[0.60028 0 0 0.60028 0 -0.1181] CT
0 0 1 RC
N
254.156 367 M
295.344 367 L
295.344 73.54 L
254.156 73.54 L
cp
f
GR
GS
[0.60028 0 0 0.60028 0 -0.1181] CT
0 0 1 RC
N
336.531 367 M
377.719 367 L
377.719 66.84 L
336.531 66.84 L
cp
f
GR
GS
[0.60028 0 0 0.60028 0 -0.1181] CT
0 0 1 RC
N
418.906 367 M
460.094 367 L
460.094 64.495 L
418.906 64.495 L
cp
f
GR
GS
[0.60028 0 0 0.60028 0 -0.1181] CT
0 0 1 RC
N
501.281 367 M
542.469 367 L
542.469 55.785 L
501.281 55.785 L
cp
f
GR
GS
[0.60028 0 0 0.60028 0 -0.1181] CT
0 0 1 RC
N
583.656 367 M
624.844 367 L
624.844 56.12 L
583.656 56.12 L
cp
f
GR
GS
[0.60028 0 0 0.60028 0 -0.1181] CT
0 0 1 RC
N
666.031 367 M
707.219 367 L
707.219 55.115 L
666.031 55.115 L
cp
f
GR
GS
[0.60028 0 0 0.60028 0 -0.1181] CT
10.0 ML
0.833 LW
N
171.781 367 M
171.781 325.795 L
212.969 325.795 L
212.969 367 L
cp
S
GR
GS
[0.60028 0 0 0.60028 0 -0.1181] CT
10.0 ML
0.833 LW
N
254.156 367 M
254.156 73.54 L
295.344 73.54 L
295.344 367 L
cp
S
GR
GS
[0.60028 0 0 0.60028 0 -0.1181] CT
10.0 ML
0.833 LW
N
336.531 367 M
336.531 66.84 L
377.719 66.84 L
377.719 367 L
cp
S
GR
GS
[0.60028 0 0 0.60028 0 -0.1181] CT
10.0 ML
0.833 LW
N
418.906 367 M
418.906 64.495 L
460.094 64.495 L
460.094 367 L
cp
S
GR
GS
[0.60028 0 0 0.60028 0 -0.1181] CT
10.0 ML
0.833 LW
N
501.281 367 M
501.281 55.785 L
542.469 55.785 L
542.469 367 L
cp
S
GR
GS
[0.60028 0 0 0.60028 0 -0.1181] CT
10.0 ML
0.833 LW
N
583.656 367 M
583.656 56.12 L
624.844 56.12 L
624.844 367 L
cp
S
GR
GS
[0.60028 0 0 0.60028 0 -0.1181] CT
10.0 ML
0.833 LW
N
666.031 367 M
666.031 55.115 L
707.219 55.115 L
707.219 367 L
cp
S
GR
%%Trailer
%%Pages: 1
%%EOF
